,betas,,,,,,,,alphas,,,,,,,,
normal,0.112675854,-0.030966763,0.075817094,-0.021040907,0.000224853,0.067688102,-0.00478205,0.024429227,-1.553371534,-1.255037561,-0.949099807,-0.686955117,-0.236315843,0.032995832,0.362141042,0.798170181,1.177937667
laplace,0.115157293,-0.009444412,0.061958086,-0.015594876,0.00016669,0.036844301,-0.007516104,0.054493867,-1.413471871,-1.026186782,-0.68026049,-0.425086971,-0.068635356,0.111413438,0.333907423,0.684994598,1.075327847
slaplace,0.102172989,-0.011692914,0.066263122,-0.014639731,0.000147121,0.039892999,-0.02133811,0.040116874,-0.80850295,-0.540432683,-0.300974454,-0.123872724,0.15104418,0.325871098,0.576906823,1.007611519,1.489019955
sged,0.104260843,-0.012257199,0.067919049,-0.015060958,0.000151552,0.041038429,-0.02105882,0.041298905,-0.816762993,-0.549519779,-0.308676956,-0.128633724,0.153669086,0.333321742,0.589794122,1.024718153,1.505444367
