,0,1,2,3,4,5,6,7,8
success,True,,,,,,,,
alphas,-1.41347187058,-1.02618678196,-0.680260489934,-0.425086970745,-0.0686353557361,0.111413437748,0.333907423021,0.684994597743,1.07532784705
alphas_steds,0.0660793806004,0.063490268273,0.062001082572,0.061318036777,0.0605815978359,0.0604748480829,0.0607639084906,0.0612980687745,0.0624322203007
betas,0.115157292905,-0.00944441210195,0.0619580863689,-0.0155948762957,0.000166689627407,0.0368443013026,-0.00751610424076,0.0544938674082,
betas_steds,0.0207287694503,0.0151071741029,0.0034860833941,0.00286049919174,3.11097308914e-05,0.0175487420239,0.0229408080351,0.016083692511,
thetas,,,,,,,,,
ll_restricted,-22542.4876812,,,,,,,,
ll_unrestricted,-22053.273957,,,,,,,,
lr_test,978.427448509,,,,,,,,
