,0,1,2,3,4,5,6,7,8
success,True,,,,,,,,
alphas,-1.77293854795,-1.45347942829,-1.03631682456,-0.712047212889,-0.281782513518,-0.085014795236,0.143137879014,0.512080333526,0.851916792641
alphas_steds,0.0787016741263,0.0766664355271,0.0754798358505,0.0746783489001,0.0740766420172,0.0740029390088,0.0741331801722,0.0745163786134,0.075270678519
betas,0.038801983533,0.00523057083778,0.069989352558,-0.0235937970472,0.000287883650723,0.109520300445,-0.0779261283811,0.01729559219,
betas_steds,0.0342934571165,0.0167508586031,0.00394374016065,0.0035060998594,3.96634762228e-05,0.0202985425953,0.0249210010639,0.0175127250292,
thetas,1.12732793926,,,,,,,,
ll_restricted,-27545.9340778,,,,,,,,
ll_unrestricted,-21584.9878881,,,,,,,,
lr_test,11921.8923795,,,,,,,,
