,0,1,2,3,4,5,6,7,8
success,TRUE,,,,,,,,
alphas,-0.815529947,-0.616199077,-0.361143194,-0.166970898,0.11873206,0.28718696,0.519891023,0.960178193,1.390021935
alphas_steds,0.062767706,0.061824369,0.06146451,0.061106852,0.061121608,0.06137645,0.061737728,0.062624519,0.064131353
betas,0.052706401,0.00414428,0.070480561,-0.019772909,0.000226678,0.107006243,-0.066452419,0.064239337,
betas_steds,0.027904122,0.013601635,0.003285109,0.002901343,3.28E-05,0.016692136,0.020370112,0.014484203,
thetas,0.027904122,0.013601635,,,,,,,
ll_restricted,-27545.93408,,,,,,,,
ll_unrestricted,-21509.7712,,,,,,,,
lr_test,12072.32576,,,,,,,,
