1.000000000000000000e+00,6.004605672465493926e-01,3.052773483482806860e-01
2.000000000000000000e+00,5.933690159687653454e-01,9.242065796868959016e-01
2.000000000000000000e+00,3.221112906856140601e-01,3.305131081288992245e-01
2.000000000000000000e+00,7.387718870813942962e-01,9.675994468125063142e-01
2.000000000000000000e+00,8.745527288933394594e-01,8.066279009498864561e-01
1.000000000000000000e+00,7.438252631815888138e-01,5.923489145489692076e-01
2.000000000000000000e+00,4.292364733711433455e-01,4.496274084485724076e-01
4.000000000000000000e+00,4.372493499199964218e-01,7.087306586959414290e-01
2.000000000000000000e+00,5.593840006473200788e-01,1.889327051191865836e-01
2.000000000000000000e+00,6.214269603184989776e-01,7.020283719928018806e-01
1.000000000000000000e+00,9.248356194128652952e-01,7.698407103759941084e-02
2.000000000000000000e+00,3.790003782364174123e-01,5.863192542764652515e-01
1.000000000000000000e+00,7.838584780046713441e-01,6.215099105100497789e-01
3.000000000000000000e+00,4.795655501984918967e-02,7.253067675496078781e-01
2.000000000000000000e+00,2.649332397457516697e-01,3.045891632627297785e-01
2.000000000000000000e+00,2.748491789973963595e-01,1.853774237274824488e-01
2.000000000000000000e+00,1.694422005582860713e-01,1.613253935751288726e-01
1.000000000000000000e+00,6.553793023824672215e-01,6.687484219706485433e-02
3.000000000000000000e+00,1.201946870620587138e-01,7.478930001244071812e-01
3.000000000000000000e+00,4.342179035144644317e-02,9.203910320331579742e-01
2.000000000000000000e+00,3.939322374128130244e-01,6.610161192828456489e-02
3.000000000000000000e+00,4.327391030944346406e-01,8.838829303850673780e-01
2.000000000000000000e+00,9.551527058142313953e-01,9.941868531982056556e-01
2.000000000000000000e+00,3.625076742639034011e-01,8.790479671997947220e-01
2.000000000000000000e+00,6.483810551138559086e-01,5.153512221933821413e-01
1.000000000000000000e+00,4.267762396353806942e-01,5.573796354951107146e-01
0.000000000000000000e+00,8.250741753168909787e-01,2.521734456171809136e-02
3.000000000000000000e+00,5.966907036181712254e-02,7.185027071474201499e-01
2.000000000000000000e+00,5.180234083936311462e-01,3.357695879001917350e-01
1.000000000000000000e+00,7.632271568633703929e-01,1.395266675572248705e-01
3.000000000000000000e+00,2.901273868796770961e-01,3.055732091165433983e-01
2.000000000000000000e+00,6.872135695511224496e-01,8.994952182648482397e-01
3.000000000000000000e+00,5.563647921893665194e-01,5.045309472657486527e-01
3.000000000000000000e+00,6.799094303221969726e-01,7.795710551736187988e-01
4.000000000000000000e+00,1.961363971133341932e-01,5.612255314983122245e-01
2.000000000000000000e+00,7.383591347863789345e-01,7.516886699255548310e-01
3.000000000000000000e+00,3.452202380767451784e-01,6.877040903242250813e-01
2.000000000000000000e+00,4.824947539852780798e-01,6.889946270918513305e-01
2.000000000000000000e+00,7.316949695977392754e-01,8.073019217341577125e-01
2.000000000000000000e+00,6.669885693313049035e-01,5.901688883588929180e-02
1.000000000000000000e+00,3.450840222628601683e-01,3.135620187995401542e-01
2.000000000000000000e+00,1.808110649917502588e-01,2.827714301235684236e-02
2.000000000000000000e+00,7.123338542007490171e-01,7.894979185218987672e-01
3.000000000000000000e+00,1.086015959371626760e-01,3.086018128312933984e-01
2.000000000000000000e+00,4.161796040083018955e-01,5.747926930404206880e-01
1.000000000000000000e+00,9.488254721211605291e-01,9.220875712005193181e-01
2.000000000000000000e+00,7.996670867359347845e-01,6.649033285458646469e-01
3.000000000000000000e+00,8.449455264597183213e-02,8.565851734579656984e-01
1.000000000000000000e+00,9.515774082946292234e-01,6.047097295507392056e-01
3.000000000000000000e+00,5.096513649652052447e-01,3.371731088195474291e-01
3.000000000000000000e+00,2.071590167650230185e-01,3.355811574553873022e-01
1.000000000000000000e+00,8.215412791178295926e-01,5.816316883634722323e-01
1.000000000000000000e+00,8.496867299037159649e-01,9.710987725372832724e-02
2.000000000000000000e+00,1.839439050779205775e-01,6.887662909192521221e-01
2.000000000000000000e+00,2.087622866166316538e-02,3.418982929128616677e-01
2.000000000000000000e+00,4.781276935838592035e-01,5.883392214713755175e-01
1.000000000000000000e+00,6.648794136835439739e-01,3.689027357913686744e-01
1.000000000000000000e+00,9.204015990702026917e-01,3.546182446028148805e-01
2.000000000000000000e+00,4.937024636737653571e-01,8.567989453923299248e-01
4.000000000000000000e+00,3.375014459718739257e-02,7.644495389915263450e-01
2.000000000000000000e+00,1.439609632031343400e-01,8.042087497879124580e-02
3.000000000000000000e+00,9.237829375851625002e-02,7.644892301131490653e-01
1.000000000000000000e+00,5.957095798597141778e-01,1.383269375373608057e-01
2.000000000000000000e+00,4.512118275276326695e-01,3.150218708954056757e-01
3.000000000000000000e+00,1.302307115960601447e-01,7.007824025111617505e-01
2.000000000000000000e+00,3.767503289971376734e-01,3.374000544056972029e-01
3.000000000000000000e+00,3.063954065447166419e-01,7.369016736273124035e-01
2.000000000000000000e+00,8.093965847350469422e-01,7.762416340303949225e-01
3.000000000000000000e+00,2.345975490823171139e-02,6.638157202739132234e-01
3.000000000000000000e+00,2.267488878633003857e-01,6.929458918903943498e-01
2.000000000000000000e+00,3.729453783064893280e-01,2.232826924966160309e-01
2.000000000000000000e+00,5.064920762759358430e-01,8.315414191819775480e-01
2.000000000000000000e+00,1.232332901394683766e-02,1.498115592709627908e-01
2.000000000000000000e+00,5.398093994699749709e-01,3.396379119309300698e-01
2.000000000000000000e+00,9.105362796527565195e-01,6.422678505334852295e-01
3.000000000000000000e+00,3.910943687176616779e-01,8.089709757614722552e-01
3.000000000000000000e+00,6.919460730357058775e-01,8.934422361753061592e-01
1.000000000000000000e+00,5.915256009747619226e-01,1.354874963569586699e-01
2.000000000000000000e+00,5.017121597426889013e-01,6.853143059177675411e-01
2.000000000000000000e+00,6.856575381690688253e-01,3.067642987156445900e-01
2.000000000000000000e+00,3.861362811486912516e-02,8.603488044104745658e-01
1.000000000000000000e+00,9.821153926096550801e-01,9.389864664311786679e-01
1.000000000000000000e+00,6.110734113493131447e-01,3.507899810345256331e-01
1.000000000000000000e+00,6.194834113061190584e-01,5.652316628132497689e-01
3.000000000000000000e+00,2.318489436095101386e-01,7.066754534989622138e-01
3.000000000000000000e+00,5.045395864939080655e-01,7.977054148316898852e-01
1.000000000000000000e+00,8.520279439054797566e-01,1.778114440148709230e-01
1.000000000000000000e+00,3.373411610977703479e-01,6.746990759266502380e-02
1.000000000000000000e+00,7.164435521480011504e-01,5.443051751911125447e-01
2.000000000000000000e+00,7.112743776888253988e-01,5.319561443072984286e-02
3.000000000000000000e+00,2.083609893959055270e-01,7.838875785851453504e-01
2.000000000000000000e+00,6.786040732082772031e-01,2.106953248498608655e-01
2.000000000000000000e+00,2.377855264856394424e-01,6.660858084994172312e-01
3.000000000000000000e+00,7.947364225395658899e-03,5.934647427087190730e-01
2.000000000000000000e+00,5.173394033082804322e-01,2.139929052857348912e-01
1.000000000000000000e+00,5.546980739814855177e-01,3.928037685035401516e-02
2.000000000000000000e+00,4.767628116739774935e-01,1.501999368507567212e-02
2.000000000000000000e+00,7.512136597269941651e-01,3.793369593969153630e-01
2.000000000000000000e+00,3.637766433407686462e-01,6.001292668518001250e-01
3.000000000000000000e+00,2.264203102295809789e-01,7.632870937887780149e-01
1.000000000000000000e+00,8.933674604307290101e-01,3.305320834876021019e-01
3.000000000000000000e+00,1.521368879309582534e-01,4.718142842405461668e-01
2.000000000000000000e+00,5.867766026573110194e-01,6.298254881455305210e-01
1.000000000000000000e+00,1.749285137223577369e-02,2.655743698062302816e-01
4.000000000000000000e+00,2.190020949812360174e-01,9.764553572409191418e-01
2.000000000000000000e+00,8.773066640778990344e-01,8.455652263637659649e-01
3.000000000000000000e+00,5.627352437341061053e-01,9.322457440022399178e-01
2.000000000000000000e+00,2.612072220546799439e-01,7.981559369596780140e-02
3.000000000000000000e+00,2.913061602173656617e-01,2.961697006222291373e-01
2.000000000000000000e+00,8.942704300413180096e-01,3.906737715758846763e-01
3.000000000000000000e+00,3.629069181281825429e-01,8.901815640370179805e-01
2.000000000000000000e+00,4.421175187070610635e-01,5.944464256933204016e-01
1.000000000000000000e+00,9.109167377169921087e-01,5.976519172768526289e-01
2.000000000000000000e+00,3.634118405302160237e-01,1.320454827575455736e-01
1.000000000000000000e+00,1.588840668129251066e-01,3.490060889798285437e-02
2.000000000000000000e+00,4.901960225249060166e-01,7.802080307413850058e-02
1.000000000000000000e+00,9.863776303785919408e-01,3.374408568794309282e-01
1.000000000000000000e+00,4.930390219117295469e-01,2.906788078136705034e-01
1.000000000000000000e+00,8.675740850508395496e-02,4.342855733292233511e-01
2.000000000000000000e+00,2.771379263973908769e-01,2.937909828883682462e-01
3.000000000000000000e+00,5.629295820108428661e-01,5.030123607025818178e-01
3.000000000000000000e+00,7.763079753820245621e-02,7.114898794985390351e-01
2.000000000000000000e+00,5.480667963160992251e-01,9.007091249104752784e-01
2.000000000000000000e+00,8.836428739166077850e-01,7.480835691285920852e-01
2.000000000000000000e+00,5.244102734528296450e-01,8.339481571673755811e-01
1.000000000000000000e+00,9.275625100920509292e-01,9.058582646485358048e-02
3.000000000000000000e+00,4.301454815150453914e-01,7.806713218971501611e-01
3.000000000000000000e+00,2.560218361343579163e-01,5.791291771899832463e-01
1.000000000000000000e+00,7.699175866720935346e-01,5.541712263951122930e-01
2.000000000000000000e+00,1.466619016008633425e-01,5.538729621318260188e-01
2.000000000000000000e+00,3.239525536882381651e-02,4.030193002054767160e-01
1.000000000000000000e+00,1.876014517624696731e-01,1.728066117390850698e-01
2.000000000000000000e+00,9.124701201612648305e-01,5.140575675061089811e-01
2.000000000000000000e+00,9.794236924141876965e-01,9.246608740068176235e-01
3.000000000000000000e+00,2.160300182535490610e-02,2.049283772855643448e-01
1.000000000000000000e+00,8.496276188498763648e-01,6.156800748169977133e-02
0.000000000000000000e+00,9.363317838861008324e-01,2.581978032828293745e-01
1.000000000000000000e+00,9.664602516231636242e-01,4.124842031372273343e-01
2.000000000000000000e+00,6.119428019371375704e-02,1.670900506799632979e-01
3.000000000000000000e+00,2.631323437478797489e-01,9.330037126386656610e-01
2.000000000000000000e+00,6.143640424779425180e-01,4.965868255251331131e-01
3.000000000000000000e+00,3.288045553310943170e-01,8.127086410880886014e-01
2.000000000000000000e+00,4.748019308061828259e-01,9.051865449723698331e-01
2.000000000000000000e+00,5.633466829833714273e-01,2.390593380432685100e-01
2.000000000000000000e+00,6.367970455538680685e-01,6.469169141315199711e-01
2.000000000000000000e+00,6.315375102010890584e-01,4.830740913348579024e-01
2.000000000000000000e+00,2.838067853194373713e-01,3.664817053198470287e-01
2.000000000000000000e+00,5.951766537618203845e-01,4.410583604802954527e-01
2.000000000000000000e+00,2.046345536292647482e-01,6.119737226622190551e-02
1.000000000000000000e+00,6.180382405945886726e-01,5.573374228518598317e-01
0.000000000000000000e+00,8.272024100193493545e-01,2.109113005233289595e-01
1.000000000000000000e+00,4.433880205860558643e-01,2.308829302699493269e-01
3.000000000000000000e+00,5.753579741087831989e-01,7.841743121546119744e-01
1.000000000000000000e+00,5.964327973092582447e-01,2.430118190406016510e-02
3.000000000000000000e+00,2.796025806974566930e-01,5.548015357661730818e-01
1.000000000000000000e+00,5.493134680007263349e-01,2.033728959838279060e-01
1.000000000000000000e+00,6.327203130331267023e-01,2.686060234601340690e-01
2.000000000000000000e+00,2.848027369516727969e-01,3.324926904790876936e-01
2.000000000000000000e+00,3.123966880967008475e-01,2.301595239542453264e-02
3.000000000000000000e+00,5.888844819209034798e-01,9.172176867311456760e-01
2.000000000000000000e+00,6.864888084978174598e-01,3.010885752336392995e-01
1.000000000000000000e+00,9.682876134173901139e-01,1.352118135604102322e-01
2.000000000000000000e+00,2.535978711640927141e-01,2.378786137587394212e-01
3.000000000000000000e+00,3.858274411628759282e-02,7.753396787824259340e-01
1.000000000000000000e+00,5.486070464856108719e-01,3.486210828206752765e-01
3.000000000000000000e+00,2.355131325252657337e-02,4.494428406803353537e-01
2.000000000000000000e+00,3.738409563716598161e-01,6.647792660058923220e-01
2.000000000000000000e+00,6.464436932773458544e-01,5.118822893756741488e-01
2.000000000000000000e+00,5.781615522383131145e-01,7.676575551144675380e-01
1.000000000000000000e+00,7.202252467421175197e-01,2.011027486197626279e-01
2.000000000000000000e+00,9.219087788695818908e-01,4.230698713385812049e-01
1.000000000000000000e+00,4.856070388561533058e-01,1.509165404943538791e-01
2.000000000000000000e+00,2.933000513666482734e-01,1.654671089915901172e-01
1.000000000000000000e+00,9.181599703843643656e-01,5.225793379039286313e-01
0.000000000000000000e+00,8.582369732778669658e-01,2.357264543635003706e-01
1.000000000000000000e+00,3.681023465799700967e-01,4.916848201070596058e-01
2.000000000000000000e+00,7.221135525540922639e-02,1.894241270991852133e-01
2.000000000000000000e+00,5.027840708832510552e-01,9.981008995223692448e-01
2.000000000000000000e+00,9.961100891070350238e-01,5.681733809930713530e-01
3.000000000000000000e+00,7.964600396737009369e-02,6.810455673482285199e-01
1.000000000000000000e+00,5.079131210726879342e-01,3.467343382094000281e-01
1.000000000000000000e+00,9.095146293742386590e-01,2.372930625826774609e-03
2.000000000000000000e+00,5.148507403641455760e-01,5.587032847809363378e-01
1.000000000000000000e+00,9.362998227714048882e-01,4.058296621941892557e-01
2.000000000000000000e+00,1.425678432761819936e-01,6.961625651984850727e-01
2.000000000000000000e+00,6.291354868804264200e-01,5.904736476898108100e-01
3.000000000000000000e+00,2.808563845032209239e-01,9.331448076561460470e-01
2.000000000000000000e+00,1.843257964670567128e-01,6.438322926454980166e-01
2.000000000000000000e+00,5.359189707292392191e-01,2.299150575801099938e-01
2.000000000000000000e+00,2.902953043272358258e-01,9.423274152747362908e-02
3.000000000000000000e+00,8.718135915163119920e-01,9.660821643815388216e-01
1.000000000000000000e+00,7.167985951348189166e-01,4.967791285173006610e-02
1.000000000000000000e+00,1.758712010204626086e-01,6.837041535087129418e-04
2.000000000000000000e+00,6.268978888970300201e-01,9.125473958131130603e-01
1.000000000000000000e+00,9.050221540558843758e-01,1.340785919595470776e-01
1.000000000000000000e+00,8.520321565685549103e-01,4.518993904387874627e-01
2.000000000000000000e+00,3.041420456860380872e-01,7.813225767948372980e-01
1.000000000000000000e+00,6.729455124196631610e-01,9.433699101829100542e-01
2.000000000000000000e+00,6.662580244917190031e-01,2.053663426455298868e-02
2.000000000000000000e+00,3.709527036761801622e-01,3.343710890973805583e-01
4.000000000000000000e+00,1.974701081270779923e-01,4.380285433111653637e-01
3.000000000000000000e+00,9.684491648475734848e-02,2.297321342649703002e-01
0.000000000000000000e+00,6.964522383559424989e-01,5.180204780989298152e-01
2.000000000000000000e+00,5.102670729210259104e-01,9.296619537455708127e-02
2.000000000000000000e+00,1.867017815689809845e-01,2.615605752736407386e-01
2.000000000000000000e+00,7.279467274081126149e-01,5.262854140241852718e-01
3.000000000000000000e+00,5.681932857339500043e-01,8.148770861443631608e-01
0.000000000000000000e+00,9.996226828641106010e-01,2.914471172083630268e-01
2.000000000000000000e+00,4.315796960768597534e-01,5.564355138392969025e-01
2.000000000000000000e+00,2.886459433303901756e-01,1.578969000901815356e-01
3.000000000000000000e+00,8.368844198812174229e-01,9.336974114356605403e-01
2.000000000000000000e+00,6.906711842600216089e-01,6.253006547896636791e-01
4.000000000000000000e+00,1.094634421953646353e-01,7.992849244492927774e-01
3.000000000000000000e+00,1.625816271812826619e-01,1.343940820097536681e-01
3.000000000000000000e+00,1.502618634688783761e-01,7.577245418878730820e-01
2.000000000000000000e+00,4.782822930482917290e-01,5.103842930486848228e-01
2.000000000000000000e+00,8.570862498840388088e-01,4.841507415978586470e-01
3.000000000000000000e+00,9.984878160096177790e-02,3.765441172190189256e-01
2.000000000000000000e+00,9.726976601590088256e-01,3.914074326208317745e-01
2.000000000000000000e+00,5.904768872355108389e-01,2.568813064071772123e-01
3.000000000000000000e+00,1.339596326433952767e-01,8.168834135888325410e-02
2.000000000000000000e+00,1.665254045410418104e-01,1.386001210573155618e-01
3.000000000000000000e+00,4.979805306876312621e-01,9.856141757548507742e-01
2.000000000000000000e+00,4.978864801537239426e-01,9.399908270071160032e-01
2.000000000000000000e+00,6.375100677811347261e-01,1.502239363457202881e-02
1.000000000000000000e+00,7.441498826416692580e-01,4.687561388164982468e-01
2.000000000000000000e+00,8.349776313628605173e-01,2.759655653465712399e-01
3.000000000000000000e+00,1.743640519723513860e-01,7.326114364574548565e-01
3.000000000000000000e+00,4.975408672288738066e-01,4.909212502886793894e-01
2.000000000000000000e+00,6.625151481017718114e-01,4.684737233052908012e-01
2.000000000000000000e+00,5.141249657769556558e-01,1.044052617311563846e-02
3.000000000000000000e+00,2.719508336564664397e-01,8.326520543937127039e-01
0.000000000000000000e+00,9.587245228235106165e-01,9.131048345155781121e-01
2.000000000000000000e+00,5.412744227129078212e-01,7.512470147228430539e-01
0.000000000000000000e+00,8.395730284143542166e-01,1.189012110265856847e-01
2.000000000000000000e+00,1.649350737680692625e-01,4.464049588314602524e-01
2.000000000000000000e+00,2.324733365567025478e-01,4.646202671927206485e-01
0.000000000000000000e+00,7.631592397548242479e-01,7.981961892345934562e-02
2.000000000000000000e+00,6.270959008369827448e-01,4.873968526184258021e-01
2.000000000000000000e+00,7.112197298182331151e-01,7.853252541615396431e-01
2.000000000000000000e+00,9.585585213516799596e-01,8.318734404857794917e-01
1.000000000000000000e+00,9.475874034946848434e-01,3.093856923350982724e-01
1.000000000000000000e+00,5.136531122953040818e-01,3.810854860261263521e-01
2.000000000000000000e+00,5.609590926313531289e-01,9.032457580357349247e-01
2.000000000000000000e+00,1.429472382270130515e-01,4.640732971863387180e-01
2.000000000000000000e+00,9.246467822976965900e-01,2.461471208148803269e-01
2.000000000000000000e+00,5.973142391800301265e-02,1.437719674084227961e-01
1.000000000000000000e+00,9.507808984930377072e-01,5.906521715445633980e-01
2.000000000000000000e+00,4.317791299972096875e-01,8.471009785553899052e-01
2.000000000000000000e+00,3.508077321792973935e-01,5.578165234398716477e-01
3.000000000000000000e+00,4.128147140811818661e-01,8.992387168523454655e-01
2.000000000000000000e+00,8.527821025614416017e-01,9.403325753460789471e-01
1.000000000000000000e+00,8.048988591065386888e-01,4.676701522908822684e-01
3.000000000000000000e+00,2.822937129313006777e-01,2.278337188344270459e-01
3.000000000000000000e+00,1.695648901034572109e-01,6.770842640038843285e-01
3.000000000000000000e+00,2.562380403552733110e-02,6.847454360078658597e-01
1.000000000000000000e+00,8.460304647637568731e-01,7.499225272478617921e-01
0.000000000000000000e+00,8.261085912221375338e-01,5.434814323957659621e-02
1.000000000000000000e+00,7.244241100293835611e-01,1.164157853533769327e-01
2.000000000000000000e+00,9.344591475756621746e-01,7.622136309828432266e-01
2.000000000000000000e+00,7.999872521415898330e-01,6.707237851749945357e-01
0.000000000000000000e+00,7.514548366571216498e-01,1.728152871940119573e-01
2.000000000000000000e+00,7.166528681018278224e-01,6.834725128069779609e-01
3.000000000000000000e+00,8.898845346649780774e-01,4.023319662010227393e-02
2.000000000000000000e+00,1.583326652032484017e-01,2.557801718182622919e-01
3.000000000000000000e+00,2.414608195140810487e-01,5.169433079641742035e-01
1.000000000000000000e+00,6.448378026913942351e-01,5.825463851225809453e-01
3.000000000000000000e+00,2.060423112184311956e-01,3.948473058209454045e-01
1.000000000000000000e+00,9.890078057455811145e-01,1.721910146260215990e-01
0.000000000000000000e+00,8.917543737087817446e-01,1.934933513038776809e-01
2.000000000000000000e+00,4.456649675658544973e-01,2.287480471387994818e-01
1.000000000000000000e+00,3.992660320442378286e-01,4.041325904331927177e-02
2.000000000000000000e+00,1.670375407123246836e-01,1.027752271732508271e-01
1.000000000000000000e+00,4.721154282051341911e-01,4.688468450525857811e-01
3.000000000000000000e+00,4.627951802968679473e-01,8.420785171693266902e-01
3.000000000000000000e+00,9.248795147098430869e-01,9.846357384930382040e-01
3.000000000000000000e+00,3.205943556370416392e-02,7.617104448013501949e-01
0.000000000000000000e+00,7.916684658499117955e-01,1.792925004201094685e-01
3.000000000000000000e+00,3.957752953518777206e-01,4.994856891310238689e-01
2.000000000000000000e+00,7.792751228865887336e-01,5.994297927383073210e-01
2.000000000000000000e+00,5.566126431494134996e-01,5.207646171576143512e-01
2.000000000000000000e+00,2.784715091812348664e-01,3.002878387217687850e-01
3.000000000000000000e+00,2.050300061451948430e-02,6.774266102511334875e-01
2.000000000000000000e+00,4.716401430848359277e-01,4.270801485346591431e-01
1.000000000000000000e+00,7.021359945696035165e-01,9.839643890340576959e-01
4.000000000000000000e+00,9.758302940245833224e-02,9.472463207128798413e-01
2.000000000000000000e+00,6.587450547145676794e-01,7.496417059275891637e-01
1.000000000000000000e+00,5.298146285745632955e-01,2.639745377789830538e-01
2.000000000000000000e+00,1.276576627928744934e-01,2.798762169844548620e-01
2.000000000000000000e+00,7.128066406927767718e-01,3.174510221546535949e-01
2.000000000000000000e+00,5.683575407778700406e-01,6.035185693807398888e-01
3.000000000000000000e+00,3.292747041165190458e-01,6.827787357742440832e-01
2.000000000000000000e+00,6.720498788998900963e-01,7.213947775570719312e-01
1.000000000000000000e+00,6.909475057234230055e-01,6.887945136925897049e-01
2.000000000000000000e+00,5.157003151481871495e-01,5.663296950799414642e-01
1.000000000000000000e+00,8.497589038948827334e-01,5.259399383308372977e-01
1.000000000000000000e+00,8.048893709260148688e-01,4.981187180966780703e-01
3.000000000000000000e+00,5.277943726768788979e-01,9.646377402636153731e-01
1.000000000000000000e+00,4.481068671260270975e-01,7.621471209573364991e-01
1.000000000000000000e+00,8.838866702391435792e-01,4.583049786536899095e-01
2.000000000000000000e+00,5.629889490450672440e-01,4.685107831079071694e-02
0.000000000000000000e+00,8.652715707890856756e-01,6.558217889238647791e-01
2.000000000000000000e+00,4.572333883300132573e-01,8.769392787273349033e-01
2.000000000000000000e+00,7.906820147247969333e-01,4.245988371387415805e-01
2.000000000000000000e+00,1.536094477715524986e-01,6.097787593624655056e-01
4.000000000000000000e+00,9.287831850431138569e-02,3.215590808334682915e-01
2.000000000000000000e+00,4.631034205956765515e-01,1.900078679070636989e-01
2.000000000000000000e+00,4.769189447445126850e-01,8.638191557584856684e-01
2.000000000000000000e+00,6.024316479717963801e-01,6.086491092865585761e-01
2.000000000000000000e+00,4.898991139705246578e-01,9.792560733504911408e-01
3.000000000000000000e+00,6.382114569414552019e-01,8.484659846406937822e-01
4.000000000000000000e+00,3.608701824870682584e-01,7.586381152587917676e-01
2.000000000000000000e+00,4.775097181908469768e-01,4.822136359301330000e-01
1.000000000000000000e+00,3.660056735044969756e-02,2.209626025655503367e-01
0.000000000000000000e+00,5.400373464489304220e-01,2.425058248098994618e-01
3.000000000000000000e+00,8.316583118660458851e-02,6.910712261571485548e-01
3.000000000000000000e+00,1.637769118799593526e-01,7.181793679615412485e-01
0.000000000000000000e+00,7.414822476699467479e-01,2.884240609874486605e-01
0.000000000000000000e+00,8.528707559109780512e-01,9.426490738808246395e-02
0.000000000000000000e+00,8.661138972677875358e-01,2.786767554972742200e-01
2.000000000000000000e+00,8.264665485508881915e-02,4.225889028306034634e-01
2.000000000000000000e+00,6.178167415593827094e-01,5.454770744831695106e-01
3.000000000000000000e+00,8.351752979744176963e-01,7.575228418565587152e-01
3.000000000000000000e+00,1.235568432247423631e-01,9.490239093254537739e-01
1.000000000000000000e+00,8.226945442130155772e-01,9.192197871320948455e-01
2.000000000000000000e+00,4.590559390280969376e-01,5.492359874068275527e-02
2.000000000000000000e+00,4.959784928955279781e-01,4.784394841918720997e-01
2.000000000000000000e+00,5.159679712008911068e-01,8.651288088647666186e-01
2.000000000000000000e+00,6.237954455503873508e-01,4.708297385673752000e-01
2.000000000000000000e+00,9.679439586771911852e-01,8.442476877434713645e-01
2.000000000000000000e+00,5.484021483695314947e-01,6.996609671800844144e-01
2.000000000000000000e+00,7.282325874818686984e-01,2.458719272537355227e-01
2.000000000000000000e+00,4.287851407854891272e-01,4.224429278722249270e-01
3.000000000000000000e+00,8.338806590438740951e-02,7.717923764754499594e-01
2.000000000000000000e+00,7.266574327667751909e-01,3.236271577929850096e-02
2.000000000000000000e+00,7.410413356105228777e-01,6.631666112702864213e-01
2.000000000000000000e+00,4.999547525299956607e-01,2.857075246036556715e-01
3.000000000000000000e+00,3.084882803449895405e-01,5.057641664614490606e-01
1.000000000000000000e+00,4.224464538067415065e-01,2.695269613855939550e-01
2.000000000000000000e+00,4.450266914874568824e-01,7.525488714523975720e-01
3.000000000000000000e+00,2.563642817106382976e-01,7.524341389883892894e-01
3.000000000000000000e+00,2.764362836729424844e-01,4.828942502858446506e-01
3.000000000000000000e+00,2.863284977263654829e-01,4.877960575471003146e-01
0.000000000000000000e+00,7.611171356996468962e-01,4.777474659383567079e-01
1.000000000000000000e+00,7.489759752533936554e-01,3.002156593374967208e-01
2.000000000000000000e+00,3.000500537192996031e-02,4.220539498632447373e-02
2.000000000000000000e+00,6.415355533714293124e-01,2.621249882283160915e-01
1.000000000000000000e+00,8.594818996269812938e-01,1.066022124724952391e-04
2.000000000000000000e+00,7.834051002823646526e-01,6.851610342107785634e-01
4.000000000000000000e+00,2.030932815192287855e-02,9.974548216189815797e-01
2.000000000000000000e+00,5.192893477572033678e-01,9.238205900529893322e-01
2.000000000000000000e+00,4.502132158176673782e-01,8.405241292427332311e-01
3.000000000000000000e+00,8.970630882585628463e-02,5.104002928045808796e-01
3.000000000000000000e+00,1.932211250711116657e-01,4.249853730497705762e-01
2.000000000000000000e+00,4.112536840213412148e-01,5.033740186533394168e-01
3.000000000000000000e+00,4.831824875337425995e-01,9.799536233709931210e-01
2.000000000000000000e+00,3.379462633958392193e-01,3.673165338018726800e-01
2.000000000000000000e+00,8.493751274926450989e-01,6.894476827440703115e-01
2.000000000000000000e+00,6.074397824791376577e-01,6.156955911864605557e-01
1.000000000000000000e+00,8.043215755574542047e-01,5.216907432116433263e-01
1.000000000000000000e+00,6.900985982245729788e-01,9.380427890353236764e-01
1.000000000000000000e+00,6.065152051160790370e-01,7.962864926215845740e-01
3.000000000000000000e+00,3.209880515604867091e-01,4.392429481855949502e-01
2.000000000000000000e+00,5.751902661744524581e-01,1.789544330582303333e-01
1.000000000000000000e+00,2.906668682614244048e-01,5.727770199805469753e-01
1.000000000000000000e+00,8.320666182058300553e-01,3.454583231766210627e-01
2.000000000000000000e+00,2.382862433260183321e-01,3.917161376336107947e-01
3.000000000000000000e+00,7.970188778606790425e-02,2.494396381766494919e-02
0.000000000000000000e+00,8.907729175770044971e-01,3.633590983683707698e-01
2.000000000000000000e+00,3.793146873473769443e-01,6.293628218295794774e-01
3.000000000000000000e+00,3.597757857331927989e-01,2.513205061638719151e-01
2.000000000000000000e+00,9.036150121737753782e-01,8.328969953370425339e-01
2.000000000000000000e+00,3.953724324775440557e-01,1.855393670671672268e-01
2.000000000000000000e+00,5.443511130800203768e-01,7.476765933462616864e-01
3.000000000000000000e+00,3.343350936280126140e-01,7.943146697191022509e-01
2.000000000000000000e+00,4.572276706368708643e-01,5.350982059908877542e-01
2.000000000000000000e+00,7.722900427819203717e-01,9.694800199409614461e-01
2.000000000000000000e+00,1.424790966624844835e-01,2.601510595620158961e-01
0.000000000000000000e+00,9.139865598390040091e-01,1.687089074135559308e-01
2.000000000000000000e+00,1.725804835653090841e-01,5.436147603549101870e-02
2.000000000000000000e+00,5.465185419069658046e-01,7.790160804606226508e-01
1.000000000000000000e+00,5.304743020451370139e-01,3.280969956437644885e-01
0.000000000000000000e+00,9.826548068640781342e-01,4.904968338415571782e-01
2.000000000000000000e+00,3.729922707862242115e-01,2.306012964402749388e-01
3.000000000000000000e+00,4.526441726145092881e-01,6.960952541752606360e-01
1.000000000000000000e+00,5.060464697310147475e-01,6.456090778265926033e-01
1.000000000000000000e+00,7.283540379406168164e-01,5.969222434650478526e-02
2.000000000000000000e+00,4.278816293582691221e-01,8.209055262694259225e-01
3.000000000000000000e+00,5.704469012710480236e-01,7.072896691163436111e-01
2.000000000000000000e+00,6.075825910718899436e-01,4.629225656173573400e-01
1.000000000000000000e+00,5.394648822788331577e-01,2.323324560044537357e-01
3.000000000000000000e+00,2.704021370429978699e-01,7.477272244667407808e-01
3.000000000000000000e+00,1.989003180132632442e-01,3.204853615668120659e-01
3.000000000000000000e+00,7.331148715376180069e-01,7.376617598317770641e-01
2.000000000000000000e+00,6.318260619812795520e-01,8.897795543557890374e-01
1.000000000000000000e+00,4.714618302883381018e-01,1.703023860492702823e-01
2.000000000000000000e+00,2.952997306488704954e-01,4.541375138067411665e-01
1.000000000000000000e+00,4.683052296515849422e-01,2.970382444387359433e-01
3.000000000000000000e+00,3.703681408609250658e-01,9.518077095928313414e-01
1.000000000000000000e+00,7.480560493009641432e-01,2.691474365678633296e-01
3.000000000000000000e+00,4.746607476175945806e-03,2.857942864211191480e-01
1.000000000000000000e+00,5.111949435718662338e-01,2.217859257002854356e-01
1.000000000000000000e+00,9.812044896378671055e-01,6.259818156275664958e-01
2.000000000000000000e+00,4.787059390960097804e-01,3.322663890101382744e-01
2.000000000000000000e+00,7.821512684099797275e-01,2.424642194249316818e-01
2.000000000000000000e+00,6.817602102517620333e-01,8.822243717529038021e-01
2.000000000000000000e+00,2.312615734722387462e-01,5.903990238329648310e-02
4.000000000000000000e+00,3.299014139042429905e-01,4.806140194788848241e-01
1.000000000000000000e+00,8.763082289468635544e-01,8.362459136549439398e-01
2.000000000000000000e+00,4.855013563647254671e-01,5.297569020313332988e-01
2.000000000000000000e+00,3.815818416058724960e-02,1.494533721964038664e-01
1.000000000000000000e+00,7.171217917659986618e-01,8.065205087269602391e-01
2.000000000000000000e+00,7.704374798893312004e-01,2.197623111464627188e-01
3.000000000000000000e+00,1.348231834551952835e-01,3.631339333369499878e-01
2.000000000000000000e+00,2.517239318745572163e-01,6.592275540873524520e-01
2.000000000000000000e+00,6.367696031812878354e-01,5.277240718077600423e-01
1.000000000000000000e+00,2.041294296778171091e-01,4.571680795514132534e-02
3.000000000000000000e+00,3.975131375870508688e-01,5.643669860228243129e-01
2.000000000000000000e+00,3.196332893065534364e-03,8.594631705288724444e-02
2.000000000000000000e+00,1.894086978963113177e-01,9.989555287802378558e-01
2.000000000000000000e+00,2.032613374333259726e-01,1.268072946290278447e-01
1.000000000000000000e+00,5.807357447230688807e-01,1.192129380268813765e-02
2.000000000000000000e+00,5.087754692687654900e-01,3.724286461954754435e-01
2.000000000000000000e+00,8.031259747689959427e-01,7.581588050228960096e-01
2.000000000000000000e+00,6.025186905676555016e-01,2.747820644663584444e-01
2.000000000000000000e+00,6.848383164541504975e-03,9.190413386077261881e-01
3.000000000000000000e+00,8.265443482251821905e-02,3.691787625566549380e-01
1.000000000000000000e+00,6.988702418616788981e-01,4.061062673955514457e-01
0.000000000000000000e+00,9.358609837985290003e-01,3.944575127033708162e-01
2.000000000000000000e+00,8.863545294237019645e-01,2.727458032989058534e-01
2.000000000000000000e+00,2.745800715078664522e-01,5.505735868590219129e-01
2.000000000000000000e+00,7.178673607055640060e-01,5.737797808399930366e-01
1.000000000000000000e+00,4.393186396713097963e-01,3.552230303483649987e-02
1.000000000000000000e+00,9.023580982691435937e-01,5.020706177914974200e-01
2.000000000000000000e+00,8.394015871693262243e-01,4.861378945445862243e-01
3.000000000000000000e+00,5.608783587446120045e-02,2.535494445580324108e-01
1.000000000000000000e+00,6.038845898556691738e-01,9.838903082350691776e-03
2.000000000000000000e+00,2.487022923032458088e-01,2.038409769789704118e-01
1.000000000000000000e+00,9.096592332669244385e-01,3.617871791992928188e-01
3.000000000000000000e+00,5.282306257236313307e-02,1.180685104640860628e-01
1.000000000000000000e+00,5.531149942651931717e-01,6.524556656774612717e-01
2.000000000000000000e+00,2.258765712926947833e-01,9.440355105880871012e-01
2.000000000000000000e+00,8.928183933272195727e-01,8.294502375259552585e-01
2.000000000000000000e+00,7.370738804595999838e-01,5.575508526630444939e-01
4.000000000000000000e+00,1.257837217785788830e-01,7.746445898437160915e-01
0.000000000000000000e+00,9.854886351651900300e-01,4.723725598914775281e-01
2.000000000000000000e+00,4.050171039530968686e-01,9.651271131734343589e-01
0.000000000000000000e+00,8.178691785542360204e-01,3.612749939092779750e-01
1.000000000000000000e+00,3.436077628489713209e-01,3.918761248748234838e-01
3.000000000000000000e+00,1.368945777528361996e-01,4.459322465604868002e-01
2.000000000000000000e+00,3.073918708892384721e-01,9.125562146202296221e-01
3.000000000000000000e+00,2.962683214057405534e-01,7.610349465581185413e-01
3.000000000000000000e+00,7.410178925436312625e-01,9.381791760976492256e-01
3.000000000000000000e+00,1.062748809266926830e-01,5.775147909203930396e-01
3.000000000000000000e+00,4.066109443594698725e-01,5.501247853723310044e-01
2.000000000000000000e+00,4.258386074038739144e-01,6.758537428733524255e-02
3.000000000000000000e+00,1.407274695889193517e-01,9.143915052748604610e-01
2.000000000000000000e+00,4.296726912057102776e-01,9.201663467417817710e-01
2.000000000000000000e+00,1.771547823831547408e-01,4.779317101306518323e-01
2.000000000000000000e+00,2.666233722167902220e-01,8.940447886006113176e-01
1.000000000000000000e+00,7.693266247866371588e-01,5.194805148327924504e-01
2.000000000000000000e+00,4.842873150244979552e-01,2.572543232033303040e-01
3.000000000000000000e+00,2.164587736949784569e-01,6.940068528574921958e-01
3.000000000000000000e+00,7.699986553653104249e-02,7.532743670630817068e-01
1.000000000000000000e+00,4.999588811109421105e-01,6.625366138812930350e-01
2.000000000000000000e+00,5.265798634631275732e-01,3.708189255309711774e-01
3.000000000000000000e+00,7.972384035463428997e-01,7.828471951768104509e-01
3.000000000000000000e+00,1.357962128695224813e-01,3.747758877384542719e-01
3.000000000000000000e+00,1.970777280344210292e-01,1.712637310500542132e-01
1.000000000000000000e+00,8.775660380006886641e-01,5.579760054688139848e-01
1.000000000000000000e+00,8.314447033125798026e-01,8.646186625275330551e-01
1.000000000000000000e+00,8.676505533490759259e-01,4.813983165975100897e-01
2.000000000000000000e+00,9.001273826413561663e-01,8.742707264387893362e-01
2.000000000000000000e+00,1.898103217226899675e-01,3.239607489378449889e-01
3.000000000000000000e+00,3.054010178005153175e-01,3.768474329493001207e-01
1.000000000000000000e+00,5.913362983517956861e-01,7.050170832615587635e-02
1.000000000000000000e+00,3.116981866653698585e-01,3.754482189184340513e-01
2.000000000000000000e+00,5.640290137289849515e-01,7.881058920905259502e-01
1.000000000000000000e+00,8.158172704680900500e-01,5.337989548979104049e-01
3.000000000000000000e+00,5.263583065488465218e-01,6.124865225762872178e-01
1.000000000000000000e+00,8.606371175370216564e-01,5.804459669504218322e-01
2.000000000000000000e+00,1.740521047538057253e-01,2.723750144828185338e-02
1.000000000000000000e+00,4.509052596462271856e-01,1.926023858520354848e-01
3.000000000000000000e+00,4.580896132400298359e-01,5.610210025464767991e-02
2.000000000000000000e+00,8.514089568606750813e-01,6.233972765456587961e-01
2.000000000000000000e+00,5.353251247716066530e-01,1.245324718932805386e-02
3.000000000000000000e+00,2.856584989646816508e-01,2.425697285450216789e-01
2.000000000000000000e+00,3.156367198021932108e-01,5.833375961414968280e-01
2.000000000000000000e+00,7.749021875998517439e-01,9.318994439389193252e-01
1.000000000000000000e+00,6.921480006431154353e-01,8.503508532098884576e-01
2.000000000000000000e+00,3.928493764493345974e-01,2.823586806981636110e-01
0.000000000000000000e+00,5.935042965683965388e-01,5.553081611866805822e-02
2.000000000000000000e+00,8.504922891833922582e-01,2.834981943293258810e-01
2.000000000000000000e+00,4.814940168680781341e-03,3.727005860766602341e-01
1.000000000000000000e+00,8.951497642394384835e-01,2.143329175473812631e-01
2.000000000000000000e+00,4.227439636584096050e-01,4.483402326756935619e-02
3.000000000000000000e+00,4.646385409387859822e-01,6.932115176726381112e-01
4.000000000000000000e+00,2.035042815344334510e-02,7.211691286170416326e-01
2.000000000000000000e+00,2.563821863063087125e-01,9.980580314396646502e-01
2.000000000000000000e+00,5.877366172545730461e-01,4.343290457991937359e-01
