,0,1,2,3,4,5,6,7,8
success,True,,,,,,,,
alphas,-1.77275669468,-1.45327703842,-1.03618350128,-0.711784933005,-0.28164624243,-0.0849559933153,0.143116358142,0.512016482568,0.851775057571
alphas_steds,0.0786824620557,0.0766447590816,0.0754562620184,0.0746539853496,0.0740518564132,0.0739781170587,0.07410840199,0.0744917721989,0.0752465106713
betas,0.0390083147522,0.00533228543486,0.0699955103303,-0.0235939999031,0.000287866067773,0.10939508627,-0.0781244557916,0.0171239601074,
betas_steds,0.034282435964,0.0167449022898,0.00394266865177,0.0035049907253,3.9651196293e-05,0.0202917118092,0.0249120770913,0.0175067909891,
thetas,1.1268139598,,,,,,,,
ll_restricted,-45158.5181288,,,,,,,,
ll_unrestricted,-21584.9881715,,,,,,,,
lr_test,47147.0599146,,,,,,,,
