,0,1,2,3,4,5,6,7,8,9,10,11,12,13,14,15,16,17,18,19,20
0,-1.67837902214,-1.36695025867,-0.970882082681,-0.672612452245,-0.291766844351,-0.116188778513,0.0958714221727,0.461930516222,0.819627930891,0.0116755439835,-0.000279982543786,0.0679213826135,-0.0266393030764,0.000316418429592,0.111457553834,-0.0694920941749,0.0281584592112,-21565.0183196,-45158.5181288,47186.9996184,0.0701757086367
0,0.0722073972079,0.0698246417902,0.0683838813567,0.0674983799205,0.0667902565252,0.0667117686029,0.066836584387,0.067283133665,0.0683184463801,0.0310296080889,0.0149979295073,0.00362138280282,0.00319651036977,3.62301929893e-05,0.0184418309163,0.0224384701175,0.0158229460941,,,,
