,0,1,2,3,4,5,6,7,8
success,True,,,,,,,,
alphas,-1.66954979759,-1.34959754174,-0.93273899749,-0.610354222466,-0.183665155504,0.0111622134261,0.237008258299,0.604946452957,0.946520144471
alphas_steds,0.0779230130722,0.075862579269,0.0745983859707,0.0737701330797,0.0731139849974,0.0730765543233,0.073280040605,0.0737559068323,0.0745742848076
betas,0.0685377860406,0.0286911638698,0.0699619695284,-0.0200783432212,0.00025046168847,0.100244022321,-0.0752922040073,-0.0623146132482,
betas_steds,0.0339734566038,0.01655781018,0.00390807062031,0.00346599709572,3.91129563322e-05,0.0200788896323,0.0246514716324,0.0252385437917,
thetas,0.00636303275946,1.11171296326,,,,,,,
ll_restricted,-25371.4403812,,,,,,,,
ll_unrestricted,-21581.6247939,,,,,,,,
lr_test,7579.63117469,,,,,,,,
