1.796762722645675012e+03,4.596225666059753166e+03,9.833157023377762078e-06,3.253805765822668945e+03,5.070650043715334505e+03,1.616632159006145912e+03
6.731114030971997408e+01,2.307883202518326584e+02,3.911189227230106790e-07,1.246063253171934662e+02,1.964976832984336568e+02,6.274465398689387285e+01
1.264505252094126490e+03,4.617782781710701784e+03,1.048780528550753388e-05,3.690439386733414722e+03,6.711657199264620431e+03,1.894239712241819234e+03
