0,12
0,12
1,12
0,12
0,12
0,12
1,12
1,5
2,1
1,12
0,1
1,12
2,8
0,11
1,12
1,12
1,12
1,12
1,11
1,12
1,12
0,12
0,12
1,12
2,12
1,8
1,12
0,12
0,12
1,12
1,12
1,12
1,12
0,12
1,12
1,12
0,12
2,12
1,12
0,12
0,12
0,12
1,12
0,12
1,12
0,12
1,12
1,12
0,12
0,12
0,12
1,12
1,12
2,12
1,8
2,12
1,12
2,12
1,12
1,12
2,12
1,12
1,12
1,12
1,12
1,12
2,12
1,12
1,12
0,12
2,12
1,12
0,12
1,12
1,12
2,12
0,10
1,12
1,12
0,11
1,11
1,12
2,11
0,12
0,12
1,12
2,12
1,12
1,6
1,12
1,12
1,10
2,12
1,12
1,12
1,12
1,12
1,9
0,12
2,11
1,12
1,12
1,12
1,12
0,12
1,12
1,12
2,12
1,12
1,12
2,11
1,12
1,12
2,12
2,12
0,9
2,12
1,12
2,12
1,9
1,10
1,12
1,12
2,5
1,12
2,9
1,10
2,9
1,11
2,10
1,12
1,12
2,6
1,11
1,12
0,9
1,9
0,11
2,12
1,10
1,12
0,12
0,12
0,12
1,12
1,12
1,12
2,9
1,12
1,12
1,12
0,8
1,2
0,8
0,1
0,12
1,12
0,12
1,12
1,12
2,12
0,12
1,12
1,12
1,9
0,12
1,6
0,12
1,12
1,12
2,12
1,12
2,12
0,11
1,12
0,12
1,12
0,12
0,12
1,12
1,12
1,12
1,12
1,12
1,12
0,12
0,12
1,12
1,12
1,12
1,12
1,12
1,12
2,12
0,11
1,11
1,11
0,12
0,9
1,9
1,12
1,12
1,12
0,12
1,12
0,1
0,9
0,12
0,12
0,9
1,12
1,12
1,11
0,12
0,12
0,12
1,12
1,12
2,12
1,12
2,9
1,12
1,12
2,9
1,12
1,7
0,12
0,12
0,12
1,12
1,12
0,12
1,11
1,12
0,12
0,12
0,12
1,12
1,12
0,12
0,12
1,12
0,12
0,12
1,12
1,12
1,12
0,12
0,12
1,12
0,12
1,12
1,12
2,12
1,12
1,12
1,12
0,12
1,12
1,9
0,12
2,12
2,9
1,12
1,12
2,12
2,12
1,12
1,12
2,12
1,12
2,4
2,12
1,12
1,12
1,12
1,12
0,12
0,12
1,12
0,12
0,12
1,12
1,12
1,12
2,8
1,12
0,12
0,12
0,12
2,9
1,12
1,12
1,12
0,10
0,12
0,12
1,12
2,11
1,12
1,8
1,12
1,12
2,12
1,12
0,12
1,12
1,12
2,12
0,12
1,12
1,12
1,9
1,12
1,12
2,3
0,8
1,12
0,12
1,10
1,12
1,12
1,12
0,12
1,11
1,12
2,2
1,10
1,9
1,12
1,12
1,12
1,11
1,9
1,12
0,12
1,12
0,12
1,12
1,12
1,12
2,12
0,12
0,12
2,12
2,9
1,12
2,4
1,10
1,11
1,12
1,10
1,12
1,12
0,12
1,12
0,12
1,12
2,12
1,12
1,12
1,12
0,12
1,12
0,9
1,12
0,12
0,12
1,12
1,12
1,12
1,12
2,12
1,12
0,12
1,12
1,12
1,12
0,12
1,12
1,10
1,12
1,12
1,12
1,12
0,12
0,12
0,11
0,12
1,12
0,12
1,12
0,12
2,12
0,11
2,6
2,12
0,12
1,10
1,12
1,9
1,12
0,11
1,12
1,11
2,12
0,12
2,12
0,12
0,12
1,12
0,12
1,12
1,12
0,12
1,12
1,12
1,12
1,12
1,12
2,12
1,8
1,12
1,9
1,11
1,12
1,12
1,12
1,12
1,12
0,12
1,12
2,12
2,11
1,12
1,3
1,12
0,12
1,12
1,12
1,12
0,10
0,11
0,12
1,12
1,9
0,12
1,12
1,12
0,12
1,12
1,12
0,1
0,1
1,12
1,12
1,12
1,12
1,12
0,12
2,12
2,1
2,7
1,1
1,12
1,11
1,4
1,12
1,12
1,12
1,12
1,12
1,12
1,12
1,12
1,12
1,12
1,12
1,12
1,12
1,9
0,12
1,10
1,12
2,9
0,12
0,12
0,11
2,9
1,12
1,11
1,10
1,2
1,11
0,12
0,12
1,11
1,8
2,2
0,10
0,12
1,9
1,12
1,12
1,12
1,12
0,12
0,11
2,9
1,10
1,2
0,9
0,9
1,6
1,12
1,12
1,12
1,12
1,12
1,12
0,12
1,11
0,12
2,12
0,11
1,12
1,12
1,12
1,12
0,12
0,12
0,12
0,12
1,12
0,12
1,11
2,12
1,12
0,7
1,10
2,12
1,12
1,12
1,12
2,12
0,12
0,12
2,8
0,9
2,12
1,1
0,11
0,12
1,12
1,9
1,12
1,12
0,12
0,12
2,12
1,9
1,12
2,8
1,12
1,8
1,12
0,12
2,12
1,12
0,12
0,12
1,12
2,4
0,10
1,12
2,12
1,12
1,12
1,12
0,12
1,12
0,12
2,6
1,6
0,12
1,12
0,12
1,12
2,12
0,12
1,12
0,12
1,11
2,3
1,3
1,1
2,12
1,12
2,11
2,12
1,12
1,12
1,10
1,12
1,12
0,12
1,12
0,12
2,11
1,12
0,12
0,12
0,12
2,9
0,11
0,9
0,12
1,12
1,12
0,12
1,12
1,12
0,12
1,12
1,12
1,11
0,12
0,12
1,12
0,12
2,9
1,12
0,12
1,9
0,12
2,12
1,12
0,11
1,12
1,12
1,10
1,12
2,9
1,11
1,12
1,4
1,12
1,12
1,9
1,9
1,10
1,12
2,12
1,12
0,12
1,9
2,8
1,12
1,12
0,12
1,12
1,11
1,12
1,11
1,12
1,12
1,12
1,12
0,12
0,12
1,12
1,12
1,9
1,10
2,12
2,12
2,12
1,12
1,12
1,12
1,12
1,12
0,12
1,12
1,12
2,6
1,12
0,12
1,12
0,12
2,12
0,12
1,12
1,12
0,11
1,11
1,12
1,10
1,12
1,12
1,12
0,12
1,6
1,12
0,12
1,12
1,12
0,12
1,12
1,12
2,10
1,12
2,12
1,12
0,10
0,12
0,11
0,12
1,9
0,12
0,12
1,12
1,12
2,12
1,12
1,12
1,12
1,5
1,12
0,9
0,12
1,2
0,12
0,12
0,12
1,7
1,12
2,9
2,11
1,12
1,12
1,12
1,1
1,11
2,12
1,12
0,12
1,12
0,12
1,12
1,12
0,9
1,12
1,11
1,12
1,10
0,12
1,12
0,12
1,12
2,10
1,12
2,10
0,11
1,12
0,12
1,6
0,9
0,12
0,12
2,10
0,11
1,3
1,12
1,10
2,9
1,12
1,8
1,12
1,12
0,10
1,2
0,12
2,9
0,11
0,11
2,8
2,9
1,12
0,12
0,10
1,3
1,10
2,12
2,10
1,12
1,12
0,12
0,11
2,12
2,8
1,12
0,12
1,12
1,12
1,12
1,12
1,12
0,12
1,12
1,12
0,12
1,10
1,12
0,12
2,6
1,12
0,12
2,10
1,12
2,12
1,9
0,3
1,2
1,12
1,12
1,10
2,9
0,12
1,12
2,12
1,10
2,10
1,9
0,12
1,11
0,12
0,12
0,12
0,12
2,12
0,8
2,12
0,12
0,12
2,12
1,12
1,12
1,11
1,12
1,12
1,12
1,12
1,12
0,12
2,12
1,12
1,12
1,12
0,12
1,12
1,12
0,12
0,12
0,12
0,12
0,12
1,10
0,11
1,12
0,12
1,11
1,12
0,12
1,12
0,12
0,12
0,12
1,12
1,12
0,12
0,12
1,12
0,12
0,12
0,10
1,12
0,12
1,12
1,12
1,12
1,10
1,9
1,11
0,12
1,12
0,12
2,12
1,12
1,12
1,12
0,12
1,9
1,6
2,9
0,12
0,12
2,9
0,10
1,12
0,12
1,8
0,10
0,10
1,12
2,12
0,12
1,12
1,6
0,8
2,7
1,12
1,12
0,12
1,9
0,8
1,12
1,12
0,12
1,12
1,12
1,12
1,12
1,12
0,12
1,3
0,12
0,7
1,3
0,12
1,9
1,8
1,12
0,12
0,11
1,12
0,12
0,12
1,12
0,12
0,12
1,12
1,12
1,12
1,12
1,12
1,12
1,11
0,9
1,2
2,10
1,12
1,12
1,12
0,12
1,12
1,12
0,12
1,12
2,12
1,12
0,5
2,12
1,10
2,12
0,12
2,12
1,12
0,12
0,12
1,12
2,12
1,10
2,12
1,12
1,12
1,12
0,2
0,7
2,11
1,12
1,12
0,12
0,12
1,12
0,8
1,12
0,10
0,12
1,12
1,6
1,12
2,9
0,12
1,12
1,9
1,12
1,10
0,12
1,7
0,12
0,12
0,12
1,7
0,12
1,12
0,12
0,11
1,12
0,12
1,1
1,6
0,12
1,12
0,12
0,2
2,2
0,12
0,11
0,1
1,11
1,9
2,11
2,9
1,4
1,11
1,2
1,7
1,6
1,9
1,12
1,12
1,12
1,12
1,12
2,12
0,12
0,12
0,12
1,12
0,12
1,12
0,12
1,9
0,9
0,10
1,12
0,12
1,11
1,12
1,3
1,12
1,12
1,11
1,12
1,12
2,12
1,12
1,12
0,12
0,12
1,12
0,12
0,12
0,12
2,12
1,12
1,12
0,1
2,12
1,11
1,10
1,9
1,12
0,12
1,12
0,12
2,12
0,12
1,12
1,9
2,12
2,12
1,12
1,12
1,12
2,9
1,12
1,12
1,12
2,6
0,12
1,12
1,12
0,10
0,12
2,9
1,10
0,1
1,12
1,12
0,12
1,9
1,9
1,12
1,12
1,12
1,12
0,10
1,9
1,12
1,12
1,8
1,12
1,12
1,7
1,12
0,11
0,12
1,12
0,12
1,7
1,11
0,12
0,12
1,12
1,12
1,7
0,12
2,1
2,12
1,12
2,12
2,10
2,12
1,1
1,9
1,9
0,12
1,12
1,12
2,12
0,12
1,12
1,12
0,12
0,12
1,12
1,6
0,12
2,12
1,12
0,12
1,12
1,12
1,10
1,12
0,10
1,12
1,12
1,12
1,12
1,5
1,12
1,12
0,11
1,12
0,12
1,12
0,12
1,9
1,12
1,12
1,12
2,12
1,12
0,10
1,10
1,12
1,12
1,6
1,9
1,12
1,12
2,12
0,12
1,12
1,12
1,12
0,12
1,12
1,11
1,12
1,12
1,10
2,12
1,8
1,11
1,12
0,12
0,12
1,12
0,10
1,12
0,12
0,12
1,2
2,10
2,11
2,2
1,12
2,12
2,12
0,12
1,12
0,12
1,12
1,12
0,12
0,12
0,12
1,12
0,9
0,12
1,12
1,9
1,2
1,12
0,7
0,9
0,12
1,12
1,12
1,12
1,10
1,9
0,12
1,12
2,10
0,12
0,12
0,12
1,12
1,12
1,12
1,12
0,12
2,12
1,12
1,10
1,9
1,11
1,12
0,12
1,12
2,9
1,12
1,11
2,12
1,12
1,12
2,12
1,12
1,12
1,9
0,3
1,12
1,12
0,9
1,12
0,12
1,12
1,12
1,1
0,12
0,11
1,12
1,12
1,8
1,12
1,12
0,12
0,12
1,12
1,12
1,12
2,11
0,12
0,12
1,12
1,12
0,3
1,12
0,12
1,11
1,12
1,9
1,12
1,12
0,12
0,12
1,12
0,12
2,12
0,12
0,12
1,12
0,12
1,10
0,12
1,12
2,12
0,11
0,12
0,12
0,12
1,12
1,7
1,10
1,12
2,6
2,7
0,12
1,12
1,12
0,12
1,12
1,12
2,9
1,12
0,12
1,10
1,12
1,12
1,12
1,12
2,11
0,2
1,9
0,12
0,12
1,9
1,10
2,12
1,12
0,12
0,12
0,9
1,3
0,4
0,12
2,9
0,12
1,12
1,10
1,12
0,12
2,2
1,12
1,9
1,12
0,12
0,10
0,12
1,12
0,12
0,1
1,6
1,12
0,12
1,11
0,12
0,12
0,12
0,12
2,9
1,12
1,12
1,9
1,12
1,12
1,11
0,12
0,12
0,11
0,12
0,12
2,12
0,7
1,12
0,12
0,12
0,12
1,11
0,12
1,12
1,12
1,12
1,9
1,12
1,11
2,10
1,11
0,9
1,11
1,12
0,12
2,11
1,12
2,9
1,10
2,10
1,12
0,12
0,9
2,3
1,12
1,11
0,12
1,8
1,11
1,10
0,9
0,2
2,10
0,10
2,7
1,9
2,6
2,8
0,12
1,12
1,12
0,9
2,10
0,12
1,12
0,10
1,12
0,9
0,12
0,12
0,12
2,12
1,7
2,11
1,9
1,12
1,12
2,4
1,12
1,8
1,1
1,12
2,9
1,12
1,12
0,12
1,12
1,12
1,12
1,9
0,12
1,10
0,12
1,12
1,9
1,7
0,9
1,10
1,12
0,9
2,12
1,12
0,12
1,12
1,12
1,8
0,8
0,12
2,8
2,12
1,9
0,12
1,12
2,10
1,12
0,12
1,12
1,10
1,12
2,12
2,6
2,12
1,5
2,12
0,1
1,9
1,2
0,12
1,12
1,12
0,12
0,12
1,8
0,12
0,11
2,2
1,12
1,11
1,12
1,12
1,12
0,12
1,12
1,12
1,9
0,12
0,12
0,12
1,12
0,12
0,12
0,12
0,12
1,12
1,12
1,12
0,12
0,9
1,12
1,12
1,9
1,12
2,10
0,12
0,12
1,9
1,11
1,9
1,11
2,12
1,12
2,1
1,10
2,12
1,11
2,2
0,12
1,10
1,12
0,11
0,12
1,8
2,11
2,9
2,12
0,12
0,12
1,6
0,12
1,12
0,12
0,11
0,12
0,12
1,5
2,12
1,8
0,12
0,12
0,12
2,9
1,12
1,12
1,12
1,12
1,10
0,9
1,12
1,12
1,12
1,12
1,12
1,12
1,12
1,12
1,9
0,12
1,12
1,12
1,12
1,12
0,12
2,10
2,8
1,12
1,9
1,3
1,12
0,12
1,9
0,12
0,12
0,12
1,9
1,11
1,10
1,9
0,12
0,12
0,12
1,12
0,12
1,10
0,12
0,12
1,12
1,12
1,12
0,10
1,9
1,10
1,12
1,12
1,12
0,12
1,11
0,12
1,12
1,11
2,12
2,12
0,12
1,12
0,12
1,12
2,7
0,11
2,12
1,11
1,11
2,11
0,2
1,12
1,11
1,12
0,12
1,11
0,12
2,11
0,9
0,12
1,12
0,12
1,12
1,10
1,12
0,12
2,11
1,8
2,12
1,9
1,12
2,7
1,2
0,12
1,12
1,10
0,11
1,12
0,11
1,11
0,10
0,12
1,11
2,12
1,12
0,3
0,9
0,12
1,9
2,3
1,10
1,11
1,9
1,10
1,7
1,12
1,2
1,4
2,10
0,9
2,12
2,12
2,9
1,11
1,9
1,12
0,12
1,11
1,11
1,4
2,12
1,12
0,12
1,12
1,12
0,12
0,12
1,12
1,9
1,9
1,2
1,3
2,10
1,12
1,12
1,11
0,12
2,10
0,12
1,12
0,12
0,12
1,12
1,12
1,12
1,12
1,12
0,12
1,8
1,5
1,12
1,9
1,10
2,1
0,10
2,1
0,12
1,10
1,1
1,12
1,12
1,12
0,12
2,11
0,10
0,12
1,12
2,12
2,12
0,12
1,1
1,12
1,12
1,12
2,12
2,1
1,12
1,12
1,12
2,12
0,12
1,11
1,12
1,12
2,12
0,12
1,12
1,12
0,12
2,12
0,12
1,12
1,12
1,12
1,12
1,12
1,11
0,12
2,10
1,12
1,12
2,12
1,12
2,12
0,12
2,12
1,12
1,12
1,12
1,12
1,12
0,12
1,12
1,10
1,12
0,12
0,12
0,12
1,12
1,12
0,12
1,12
1,12
2,12
0,12
1,12
1,12
1,12
0,12
1,12
1,12
2,6
0,12
0,12
0,12
1,12
1,12
1,12
1,8
1,12
0,12
0,12
1,12
2,10
2,10
1,5
1,12
2,8
0,10
1,3
0,11
1,12
0,12
0,12
0,12
0,12
2,11
1,9
1,9
0,12
2,12
1,12
2,12
0,12
1,12
0,12
1,12
2,9
1,12
0,12
1,12
1,12
0,12
1,12
1,7
1,12
0,12
1,10
1,12
2,12
0,10
0,2
0,10
0,12
1,12
1,12
1,12
1,12
2,11
1,12
1,12
1,12
1,12
2,9
1,12
2,12
1,12
1,12
1,12
1,11
1,12
0,12
0,12
0,12
2,8
1,12
1,12
0,12
1,12
2,12
0,12
0,12
0,12
1,12
1,12
1,9
2,10
1,9
1,12
0,12
1,12
1,10
1,12
1,9
1,12
1,12
1,12
1,12
0,12
2,12
1,12
1,12
1,12
0,10
1,12
1,9
1,9
1,12
1,12
2,12
2,9
1,12
1,12
2,12
1,12
2,10
1,12
1,12
1,11
1,12
1,12
2,8
0,12
1,12
1,12
0,12
0,12
1,10
0,12
1,12
1,12
1,12
0,2
1,12
0,12
1,12
1,11
1,12
1,12
1,12
2,9
1,12
1,12
1,11
1,12
1,12
1,8
1,12
2,12
1,12
2,12
0,12
1,12
1,12
1,12
1,12
1,12
2,12
1,12
1,12
2,12
1,12
2,9
2,2
1,8
0,12
1,12
1,9
1,12
0,1
1,12
1,12
1,10
1,12
0,11
1,12
0,12
1,12
0,12
0,9
0,10
0,10
2,10
1,12
1,12
0,12
0,9
1,1
1,9
1,12
1,12
2,11
0,12
1,12
2,9
1,12
1,12
1,12
1,12
0,12
1,12
0,11
1,12
1,12
0,12
2,8
2,12
1,12
1,7
0,12
0,12
0,8
2,5
1,10
2,11
1,3
1,12
1,12
1,12
1,12
0,10
2,12
1,12
1,12
1,12
2,9
1,12
1,12
1,12
0,12
1,12
1,12
0,10
0,12
1,12
1,12
1,1
1,5
1,12
1,12
2,1
1,12
0,12
0,12
0,12
1,8
2,12
1,9
1,12
1,7
0,12
1,12
1,12
2,7
1,1
0,12
1,6
1,12
1,9
0,12
0,12
1,12
0,12
1,12
1,12
1,12
0,12
0,12
1,12
0,12
1,12
1,12
0,12
1,12
0,12
0,12
1,12
1,12
1,12
1,12
1,12
2,12
1,12
1,12
0,12
0,12
1,12
1,12
0,12
1,12
1,9
1,9
1,12
0,12
2,12
0,12
1,12
0,12
1,12
1,12
0,11
1,12
1,5
1,11
0,12
2,12
2,9
1,12
1,12
2,12
1,12
1,12
1,4
1,12
0,12
0,12
1,12
1,12
1,12
1,12
0,12
0,12
1,12
1,11
1,12
2,8
1,1
2,7
1,8
0,9
1,12
1,9
1,12
1,12
1,12
1,12
1,12
1,12
1,12
1,12
1,12
1,12
1,12
2,12
2,10
1,12
1,12
1,12
2,12
2,12
1,12
1,11
1,12
0,11
1,3
1,1
1,12
1,10
1,12
2,12
1,12
0,12
1,12
1,12
0,12
1,12
1,12
0,12
1,12
1,12
2,12
1,12
1,11
1,12
0,12
1,12
1,5
1,12
2,10
0,9
0,12
1,12
1,12
1,12
2,12
1,12
0,12
1,12
1,12
1,12
0,12
2,12
1,12
1,12
1,12
1,12
0,9
1,12
0,12
2,9
0,12
1,12
0,12
1,12
1,12
0,12
1,12
1,12
0,8
1,12
1,12
2,12
0,4
1,10
0,12
1,12
0,12
1,12
0,11
0,12
0,12
0,12
1,12
1,12
0,12
1,12
2,12
1,12
1,8
1,11
2,12
0,12
1,9
2,6
1,12
1,12
0,9
1,12
1,12
1,10
1,7
2,9
1,12
0,12
2,12
1,12
2,12
0,10
1,12
1,12
1,12
0,11
1,11
0,9
0,12
0,12
1,11
1,12
1,12
1,12
0,12
1,12
2,1
1,12
0,12
1,12
0,12
1,12
1,12
0,12
0,7
0,12
1,12
1,12
1,12
0,12
1,12
0,12
1,12
0,12
1,12
0,12
1,12
1,12
0,12
1,12
0,8
1,10
1,12
2,12
1,12
0,12
0,12
1,11
1,12
1,12
0,12
0,12
1,12
0,10
0,12
0,12
1,8
1,12
1,12
0,12
1,12
0,12
1,12
2,12
2,12
2,12
1,12
1,10
1,12
1,12
1,12
1,12
1,10
1,12
0,12
1,12
0,12
1,12
1,11
0,12
1,10
1,12
0,11
1,12
1,12
2,12
1,12
2,11
0,12
1,9
1,11
1,12
1,6
0,12
1,5
2,8
1,12
1,12
2,12
1,11
0,12
1,11
1,9
1,11
1,9
2,12
1,12
0,12
1,12
1,12
1,12
1,12
0,12
0,12
0,12
0,12
1,12
0,12
1,12
0,12
1,12
1,12
1,11
1,12
1,12
1,10
1,12
2,9
1,12
2,12
1,11
2,12
1,12
2,6
2,4
1,12
1,12
2,12
1,12
1,12
1,12
2,1
1,12
2,7
1,10
1,7
0,11
0,12
2,12
1,10
1,12
1,12
0,12
1,12
0,12
0,12
0,12
0,12
1,12
1,6
2,1
1,12
0,12
2,9
1,12
1,12
1,12
0,11
2,12
1,12
1,12
1,12
0,12
1,12
0,12
1,12
0,12
1,12
0,12
1,11
1,12
1,12
1,12
1,12
1,12
2,12
0,12
1,12
1,10
0,12
0,12
1,12
0,12
1,10
1,12
2,12
2,12
0,12
0,12
2,6
0,12
0,12
2,12
1,12
2,9
0,1
0,4
0,12
2,12
0,12
0,12
1,10
1,12
1,12
1,12
1,12
1,12
1,12
1,12
1,12
2,11
0,12
1,12
1,9
1,12
1,12
0,12
2,10
1,12
2,7
1,12
1,9
1,12
0,12
1,12
1,12
1,12
2,12
1,12
1,12
0,12
1,12
1,9
1,12
1,9
0,8
2,8
0,8
0,12
2,12
1,12
2,9
0,12
2,3
0,12
0,10
1,12
0,12
0,12
1,12
0,12
0,12
1,12
1,12
0,6
1,10
1,8
1,12
0,12
1,9
1,12
2,12
1,12
2,12
1,12
1,12
1,12
0,12
1,12
0,12
1,12
2,11
0,12
0,1
2,12
1,12
0,12
1,12
1,12
2,12
1,9
1,11
0,12
1,12
0,12
0,12
1,12
0,12
1,12
1,12
1,12
1,12
0,1
0,3
0,10
2,1
1,9
1,12
1,12
2,9
0,12
1,12
0,12
1,12
1,12
1,12
2,12
1,12
1,12
0,12
1,12
1,12
0,12
0,12
1,8
2,9
1,12
0,12
2,8
2,5
0,12
1,12
0,12
1,8
2,12
0,12
0,11
0,12
2,12
1,12
1,12
1,12
1,12
1,11
1,12
1,12
1,12
0,12
2,12
2,12
0,1
1,12
1,12
1,1
1,12
1,12
1,12
1,12
1,12
0,12
2,12
0,12
1,12
1,11
1,12
1,9
1,12
1,11
1,12
1,12
1,12
1,11
0,12
1,12
1,12
1,12
0,12
1,12
1,12
0,12
1,12
1,12
1,12
0,4
0,12
1,12
1,12
0,12
2,12
0,12
1,12
1,12
1,12
2,11
1,12
1,12
0,12
0,12
1,9
2,9
0,12
1,12
1,11
1,12
1,7
1,12
1,12
1,9
1,12
0,12
0,10
0,12
1,3
1,11
0,12
0,10
1,12
1,12
2,8
1,12
0,12
0,7
1,9
1,12
1,12
1,12
1,12
1,12
2,12
2,12
1,12
2,12
0,12
1,12
1,12
1,12
1,9
1,11
0,4
1,12
1,12
1,11
1,11
0,12
1,12
1,12
0,12
1,11
0,9
1,12
1,12
2,11
1,12
0,9
1,12
1,2
1,12
1,12
1,12
2,12
1,9
1,12
1,12
2,9
0,12
1,12
1,12
1,2
1,7
1,12
1,12
0,9
1,12
0,12
1,12
1,8
0,12
1,12
0,12
2,1
1,12
0,12
1,12
1,12
2,9
1,9
0,3
1,12
0,12
0,12
1,12
0,12
1,12
1,11
0,12
1,12
1,12
1,11
1,11
1,12
1,12
1,9
0,12
1,12
0,12
1,12
1,10
0,12
1,11
0,12
1,11
0,12
1,12
1,12
1,12
2,9
0,9
1,6
1,9
0,12
1,11
1,12
0,12
1,12
1,10
1,11
1,12
1,12
1,12
1,12
2,12
0,11
1,12
1,12
1,12
2,9
2,8
1,10
0,12
0,9
1,12
0,12
1,12
1,12
2,11
1,12
0,12
1,9
0,10
1,12
1,9
1,11
2,11
0,11
1,4
1,12
0,12
0,12
1,12
2,11
0,4
0,6
2,11
1,9
1,11
1,11
2,12
0,12
1,12
1,9
1,9
1,6
1,12
1,12
1,10
1,10
0,12
0,12
0,12
1,12
0,12
0,12
1,12
1,12
1,12
0,12
0,12
0,12
1,12
0,12
0,12
1,12
0,12
1,12
1,12
1,11
0,12
1,12
1,12
1,12
0,12
1,12
1,12
1,12
0,12
1,12
0,12
2,7
0,11
0,12
0,12
0,12
1,12
0,12
1,12
1,12
2,7
1,9
0,10
1,11
1,12
2,7
1,12
1,12
0,12
1,12
2,12
1,12
2,10
1,10
1,12
1,12
1,12
0,12
0,3
1,12
1,12
0,12
0,12
1,10
1,12
0,12
1,12
1,12
1,12
1,12
1,1
2,12
1,12
1,12
1,11
1,12
1,12
0,12
0,12
0,12
1,12
0,12
0,12
2,12
0,12
0,12
1,12
0,12
1,11
0,12
1,12
0,12
1,12
1,12
0,12
0,12
0,12
1,12
0,12
1,12
0,9
1,12
1,12
2,12
1,11
2,10
2,9
2,12
2,10
0,9
1,12
1,12
1,9
0,12
0,12
0,12
0,9
1,7
1,12
1,10
0,12
1,12
1,12
2,12
0,12
0,12
0,12
1,12
1,12
2,12
1,12
2,11
1,12
2,12
1,12
2,12
1,12
1,12
2,9
0,12
1,12
2,12
0,12
1,12
0,8
1,11
1,12
0,12
2,12
1,1
1,12
2,12
0,12
1,12
2,9
0,12
2,12
2,12
0,12
1,12
1,5
1,12
1,12
1,12
1,10
2,12
2,12
0,12
2,12
0,9
1,12
1,12
0,12
0,12
2,12
1,12
1,12
1,12
1,12
1,12
1,12
0,12
1,12
1,12
1,12
0,12
1,12
1,12
2,12
1,12
1,12
0,12
1,9
0,12
1,12
0,11
0,12
0,12
0,12
0,12
2,11
0,12
0,12
0,12
1,12
1,12
1,12
2,7
0,12
0,12
2,12
0,12
1,12
1,12
0,12
0,12
0,12
1,12
1,12
1,12
0,12
1,12
0,12
0,12
0,12
0,12
0,12
0,12
0,12
2,3
1,12
2,12
1,12
2,12
1,8
1,12
1,12
1,3
2,12
0,12
1,12
1,9
0,12
0,12
2,12
1,12
1,12
1,12
2,12
0,12
1,12
1,12
1,12
0,12
2,12
0,12
2,12
1,12
1,12
1,12
1,12
0,12
1,9
0,12
1,11
1,12
2,12
0,12
1,12
0,12
0,12
1,12
0,6
2,7
1,12
1,12
1,12
1,12
1,12
0,12
0,12
0,12
1,12
1,12
0,11
2,12
0,12
2,12
1,12
1,12
0,12
1,11
1,12
1,12
0,12
1,11
0,12
0,12
1,12
1,3
2,12
1,12
0,12
1,12
0,12
1,12
2,12
2,12
0,12
0,12
2,11
1,12
2,12
1,12
1,12
0,12
1,12
1,12
0,12
1,11
1,12
1,12
1,12
2,10
1,12
1,12
1,11
1,12
0,12
1,11
1,12
1,12
2,12
1,12
1,12
0,12
0,12
1,12
1,7
1,12
1,12
1,10
1,12
0,12
0,8
0,5
0,10
2,11
0,12
0,12
0,12
1,12
1,12
0,12
0,12
2,12
2,12
0,12
1,12
1,12
2,9
2,8
2,9
1,6
1,3
2,12
1,3
1,7
1,10
1,12
1,12
1,12
0,8
1,11
1,12
2,10
1,12
1,12
0,12
1,11
2,11
1,12
0,12
0,12
0,10
1,8
1,11
2,10
1,12
1,12
1,12
1,12
0,12
0,12
1,12
0,12
1,10
1,12
2,12
1,12
0,12
1,12
0,12
1,12
1,12
1,12
0,12
1,12
1,12
0,12
1,12
0,10
1,12
1,12
1,12
1,9
0,12
0,12
1,12
2,12
0,12
0,4
1,11
1,9
0,12
0,10
1,12
1,12
1,12
1,12
0,12
1,12
1,12
1,12
1,12
2,12
1,8
2,8
0,12
0,12
0,12
1,12
1,12
0,2
1,12
1,12
0,12
1,10
2,11
1,12
1,9
1,12
1,11
1,12
1,11
0,12
1,12
1,10
1,12
2,12
1,12
1,12
2,12
1,12
1,12
2,12
1,12
1,12
2,9
2,11
0,12
2,9
1,12
1,12
0,12
0,12
1,12
1,12
1,9
0,12
1,12
0,12
1,9
1,12
2,12
1,12
0,8
1,4
0,9
0,12
0,12
0,12
1,12
1,12
1,12
1,12
1,12
1,10
1,12
1,12
1,12
1,12
1,12
1,9
1,12
0,12
1,12
1,12
1,12
0,12
1,9
1,12
2,12
0,12
1,12
0,9
0,12
0,12
1,12
1,10
1,5
1,11
1,12
1,12
1,12
1,10
2,4
0,11
1,12
1,12
2,11
1,11
1,10
1,12
1,12
1,10
1,12
1,12
0,12
0,12
0,12
1,12
0,12
1,12
1,9
1,7
1,12
1,1
2,12
1,2
0,10
1,1
1,12
2,12
0,12
2,12
1,12
2,12
0,12
1,12
0,12
1,12
1,12
1,12
1,12
1,12
2,9
0,10
2,12
2,12
0,12
0,12
1,12
2,12
1,12
0,12
1,9
1,6
1,1
1,12
0,12
0,12
1,12
0,12
0,12
0,12
1,8
0,12
2,8
1,4
1,12
0,12
0,12
1,12
1,12
1,12
0,12
2,12
1,12
1,11
0,12
1,12
0,12
1,12
1,12
0,12
1,12
1,12
1,12
1,12
2,12
0,12
1,12
0,12
1,12
2,12
1,12
1,10
1,11
2,11
1,12
1,12
0,4
1,1
0,12
0,12
1,12
1,12
1,10
0,12
0,12
0,1
1,12
1,12
1,12
0,12
1,12
1,12
1,12
1,12
0,12
2,11
0,12
1,12
1,12
1,12
2,12
0,12
0,12
1,9
1,12
1,12
1,12
1,12
1,12
1,12
1,12
0,12
0,12
1,12
1,12
1,12
2,12
0,12
1,12
1,9
2,10
2,9
0,10
0,12
1,10
1,11
0,12
1,12
1,12
0,12
1,8
1,8
1,12
1,12
1,10
1,12
1,12
1,12
1,7
1,12
0,12
1,10
1,11
1,8
1,11
1,11
1,2
1,12
0,12
1,12
1,9
1,12
1,12
0,12
2,9
1,11
1,12
0,12
2,11
1,12
1,10
2,9
1,12
1,12
0,8
1,11
0,12
1,12
1,12
1,12
1,12
0,12
1,12
0,12
0,12
1,12
1,12
1,12
1,9
1,12
1,11
1,12
1,9
1,12
1,12
1,12
2,10
0,12
1,12
1,9
1,12
2,10
1,12
0,12
0,12
0,12
0,12
0,12
1,12
0,12
1,12
2,11
1,4
0,3
1,12
0,12
1,12
1,12
1,12
1,12
1,12
1,12
0,12
0,12
1,12
1,12
1,12
0,12
0,12
2,10
1,12
1,12
0,3
0,12
2,5
2,12
2,8
2,12
0,12
0,12
0,11
0,12
0,12
0,12
1,12
1,12
1,12
0,12
1,12
1,10
0,12
1,12
1,12
0,12
1,12
1,10
2,9
1,12
1,12
0,12
0,12
1,12
0,9
1,12
1,12
1,12
1,9
1,12
1,10
0,12
1,12
0,12
1,12
2,12
2,12
0,12
1,12
0,12
1,12
1,12
1,12
1,12
1,12
1,2
2,12
0,12
1,12
1,12
1,12
2,12
1,9
0,12
1,12
1,12
1,12
1,12
0,12
0,12
1,12
1,12
0,12
1,12
1,12
1,2
1,10
1,12
1,12
2,9
1,12
2,12
1,12
1,12
1,12
2,9
0,12
1,12
1,12
1,12
0,12
1,10
1,12
1,12
1,12
1,12
0,12
1,2
1,9
2,10
1,12
1,7
2,11
1,12
0,8
1,12
1,8
1,9
1,11
0,9
1,12
1,12
1,12
1,12
1,11
2,11
2,11
1,12
1,10
1,12
2,12
2,12
2,9
1,12
2,12
2,12
1,12
1,12
1,12
0,12
1,12
0,12
2,11
1,12
1,9
1,12
0,12
0,8
2,12
1,8
2,12
1,12
1,10
1,12
1,12
0,10
1,8
2,2
1,10
0,6
1,10
2,9
2,10
1,10
1,6
2,12
0,11
2,12
1,12
2,12
1,12
1,12
0,12
1,12
1,12
1,12
0,12
1,12
2,12
1,12
0,9
2,1
2,9
0,10
1,12
1,12
1,12
1,12
0,12
1,12
1,12
1,12
1,12
1,12
1,12
0,12
1,12
1,10
1,12
0,12
1,12
2,10
0,12
1,12
1,12
1,12
1,12
1,12
1,12
1,12
1,12
1,12
1,12
1,2
0,10
0,12
0,12
1,12
1,12
1,12
1,12
1,12
1,12
2,11
1,6
1,11
0,12
1,12
1,12
1,11
2,11
1,12
1,12
0,12
0,12
1,12
1,12
0,12
2,12
0,12
1,12
0,12
1,12
1,4
1,9
1,12
1,11
0,11
0,12
1,12
0,12
1,12
1,12
1,12
0,12
0,12
1,12
2,10
2,8
1,12
0,12
0,5
0,8
1,10
2,11
1,12
0,12
1,11
0,10
0,12
0,12
1,12
2,6
2,12
0,11
0,12
0,10
1,12
1,11
1,11
0,1
0,9
0,12
1,12
1,12
0,12
2,12
0,12
1,12
0,10
1,12
0,12
2,12
1,12
1,12
1,8
0,12
0,12
1,12
0,7
1,12
0,12
1,12
0,12
0,11
0,12
1,12
1,9
1,11
0,12
0,12
1,11
1,12
1,12
1,12
1,12
0,9
0,12
1,12
2,12
1,9
0,12
1,12
1,9
1,12
2,12
1,12
1,12
1,10
1,11
1,12
1,12
0,12
0,10
0,12
1,6
1,12
1,9
0,12
0,11
1,12
1,12
0,12
0,12
1,12
2,12
0,12
2,12
1,12
2,12
0,12
2,12
1,12
1,12
1,12
1,12
1,12
1,12
1,9
1,12
1,12
1,12
1,12
1,12
1,9
2,2
2,12
2,12
1,12
1,12
1,12
1,11
1,12
1,12
1,12
1,12
1,10
0,12
0,12
0,12
1,12
1,11
1,1
0,12
0,12
1,9
1,2
2,8
1,12
1,12
1,12
1,12
0,12
1,9
0,12
1,10
1,9
1,11
1,12
2,12
0,12
1,12
2,9
1,12
1,11
0,11
1,12
1,12
0,12
1,12
1,12
0,12
1,12
1,12
1,11
0,12
1,12
0,2
1,12
1,12
0,12
0,12
1,10
0,4
0,12
0,12
2,12
1,12
1,12
1,12
0,12
1,12
1,12
1,12
1,11
1,12
1,12
1,12
2,12
1,12
1,12
1,12
2,12
2,10
1,12
1,11
1,12
0,12
1,12
1,12
1,12
0,12
1,11
1,12
0,12
1,12
1,12
2,12
1,12
0,12
1,12
2,12
1,12
1,12
0,12
0,12
1,12
1,12
0,12
1,11
1,12
1,10
2,12
0,12
0,12
1,12
1,12
1,12
1,12
1,12
1,12
1,12
2,12
1,12
0,12
1,12
1,12
0,12
1,10
2,7
0,12
1,12
1,12
1,10
1,6
1,12
1,12
1,11
0,12
2,12
0,12
1,12
0,12
1,12
0,11
0,12
0,12
1,12
0,12
1,12
0,9
2,12
2,12
0,11
0,12
1,12
2,12
0,12
1,11
1,12
0,12
0,12
1,9
0,12
1,11
1,10
1,11
1,12
0,12
1,12
1,12
1,12
1,12
1,9
0,10
1,10
0,11
1,12
1,12
0,12
0,1
0,9
0,12
2,3
1,9
1,12
1,10
1,9
0,12
1,12
1,8
1,12
0,7
0,12
1,12
0,12
0,12
0,12
1,12
1,9
1,12
2,1
1,12
1,12
1,12
1,9
1,10
2,2
1,9
1,12
2,9
1,12
0,11
1,11
1,12
1,12
1,12
1,12
1,12
1,12
1,12
1,12
2,12
2,12
1,12
1,12
1,10
1,10
1,12
1,12
1,12
0,12
1,9
1,12
1,12
1,12
0,12
1,11
1,12
2,9
1,12
1,12
1,12
0,12
1,12
1,12
0,12
1,12
1,12
1,12
1,10
2,1
1,9
1,9
1,12
1,9
0,12
0,12
2,9
1,12
0,9
2,11
0,12
1,11
2,12
2,9
2,11
1,10
1,10
1,10
1,10
0,9
1,9
0,11
1,9
0,12
1,8
1,12
0,12
2,12
1,12
1,8
2,8
1,9
0,12
0,12
1,10
1,8
1,12
0,9
1,12
1,9
1,12
1,8
0,12
1,9
2,12
1,10
1,11
1,11
0,9
0,9
2,9
0,11
1,5
1,10
1,12
1,12
1,12
1,4
1,7
0,9
1,2
1,12
1,12
0,12
0,5
1,9
0,12
1,11
0,9
0,12
2,12
1,12
0,12
1,11
1,2
1,12
0,12
1,12
1,10
1,12
0,3
1,12
0,9
2,10
1,12
1,12
0,12
1,12
0,12
2,9
1,11
1,11
0,12
1,12
0,12
0,12
2,10
1,12
1,12
1,12
0,12
1,12
0,12
1,12
1,12
2,8
0,12
0,12
1,12
0,12
0,12
0,12
1,12
1,12
2,10
1,9
0,12
1,10
0,10
1,12
1,12
2,8
2,9
1,10
1,12
1,12
0,12
1,12
1,12
2,10
1,5
0,11
1,12
1,12
0,12
1,11
1,11
2,11
1,11
1,4
1,11
0,12
1,12
1,11
0,11
1,9
0,12
1,12
2,12
1,12
2,9
2,9
2,8
1,12
