2.000000000000000000e+00,-7.638107865970413801e-01,1.091879060425221315e+00
1.000000000000000000e+00,-9.169630095387684143e-01,-6.971866227171216179e-01
3.000000000000000000e+00,-6.465993672367705836e-01,3.887988475390538601e-01
2.000000000000000000e+00,-9.768973528011194452e-01,-1.185092987329105785e-01
3.000000000000000000e+00,-6.087678652176296001e-01,8.491434597277406349e-01
2.000000000000000000e+00,-9.201447269272274021e-02,3.309575028907894567e-01
1.000000000000000000e+00,-4.312442451623772488e-01,-5.455979647264598276e-01
2.000000000000000000e+00,2.224192504102718571e-01,5.025223191275082248e-03
1.000000000000000000e+00,-1.932095060097882788e+00,-9.047401004061850216e-01
1.000000000000000000e+00,-5.132851543901879171e-03,-8.489216241529685680e-01
3.000000000000000000e+00,2.541164717344671087e-01,3.341678322577248950e-01
2.000000000000000000e+00,1.906350979600180739e+00,-5.426397298107911160e-01
1.000000000000000000e+00,4.612392514599155668e-01,-1.416265597986279490e+00
1.000000000000000000e+00,-1.314495236934385858e+00,-1.385817742029385569e+00
2.000000000000000000e+00,-8.348644446886350767e-01,4.712825037051391885e-01
2.000000000000000000e+00,-4.710048793575982162e-01,-1.673116960303797085e-01
3.000000000000000000e+00,-7.318082395940920248e-01,1.519441387528832177e+00
2.000000000000000000e+00,9.903622861903917940e-01,5.774528041484530139e-01
2.000000000000000000e+00,-5.156090198285662174e-02,1.565237324391838269e-01
0.000000000000000000e+00,-1.226100459748342031e+00,-1.946501661460263044e+00
1.000000000000000000e+00,-1.833510514366470723e+00,-4.953514292316315570e-01
2.000000000000000000e+00,-4.188129658509247566e-01,3.713123664128290535e-01
2.000000000000000000e+00,-3.589325063373769997e-01,7.564436673558910806e-01
1.000000000000000000e+00,3.150842848643867211e-01,-8.701343179194369615e-01
1.000000000000000000e+00,4.962847181303112198e-01,-1.545303696492462686e+00
2.000000000000000000e+00,7.909998336174630662e-01,-4.544011168107423559e-01
1.000000000000000000e+00,-9.498362069558149989e-02,-1.365610297877243529e+00
2.000000000000000000e+00,-2.332341787780048137e-01,9.820332243608561607e-01
2.000000000000000000e+00,1.739681664906685965e+00,-1.195041383494550857e-02
1.000000000000000000e+00,-4.965136327309143671e-01,-1.152370039025630177e+00
1.000000000000000000e+00,6.230186182484891422e-01,-4.712366997082295672e-02
2.000000000000000000e+00,-6.756096073810533564e-01,7.512134677290454032e-01
3.000000000000000000e+00,6.298329761329194421e-01,1.455731168582341528e+00
2.000000000000000000e+00,1.530273585161626426e-01,6.989442582684444183e-01
2.000000000000000000e+00,-9.423078020611814765e-01,6.649678982088410573e-01
2.000000000000000000e+00,3.534451545835055053e-01,-7.846450216319911242e-02
2.000000000000000000e+00,-3.019527947438261917e-01,7.193763367195494807e-01
2.000000000000000000e+00,2.108315810446093064e+00,-5.219198795722894690e-01
1.000000000000000000e+00,-3.789096547840989371e-01,-6.258880004673941233e-01
1.000000000000000000e+00,-1.232286153816485097e+00,-1.102457292610173889e+00
3.000000000000000000e+00,-4.546877814550641661e-01,1.561778723709765337e+00
2.000000000000000000e+00,-3.625519739707596667e-01,2.668666099789680432e-02
0.000000000000000000e+00,-7.259610264396787471e-01,-2.472064438528298158e+00
1.000000000000000000e+00,3.064610452209375335e-01,-1.709613971305866675e+00
1.000000000000000000e+00,1.134303860395108610e-01,-1.829903425881128198e+00
2.000000000000000000e+00,1.557135929466308688e-01,5.943860498347596222e-01
3.000000000000000000e+00,-1.651386238925135697e+00,4.620205950132935668e-01
2.000000000000000000e+00,4.416771686683326065e-02,-8.509542655833192137e-01
2.000000000000000000e+00,-1.153753269931738101e+00,1.323468930462823323e+00
0.000000000000000000e+00,5.659749457354592561e-01,-1.879764449089305733e+00
2.000000000000000000e+00,1.179446681308766592e-01,2.108952567963080504e-01
1.000000000000000000e+00,-7.280530362070638528e-01,-1.384066718547489971e+00
2.000000000000000000e+00,7.693701503626825255e-01,-2.420223996933399402e-01
3.000000000000000000e+00,2.717494062808963051e-02,1.952046454090286431e+00
2.000000000000000000e+00,9.992634174498161714e-01,-3.268223177986644967e-01
2.000000000000000000e+00,1.950933191296473912e-01,4.167294072825851736e-01
2.000000000000000000e+00,4.869843818048626982e-01,-3.103613951925369707e-01
1.000000000000000000e+00,-6.354810629798508526e-01,-3.333622793482005631e-01
2.000000000000000000e+00,1.235308567872218433e+00,-1.357710191687048484e-01
4.000000000000000000e+00,2.279335042323304084e+00,2.964618009720447755e+00
3.000000000000000000e+00,1.494564676635722789e+00,7.299928273225673170e-01
3.000000000000000000e+00,-3.213657856506018512e-02,2.268898402381038792e+00
3.000000000000000000e+00,9.499329829839190387e-01,2.474631541488512554e-01
2.000000000000000000e+00,-9.004151658459281782e-01,3.837530212958910614e-01
2.000000000000000000e+00,-1.219442943573892241e-01,-6.566789639602492457e-02
4.000000000000000000e+00,-5.466501984702082373e-01,2.011662429796289508e+00
1.000000000000000000e+00,-6.547469286924569865e-01,-4.606500401163225455e-01
1.000000000000000000e+00,4.977162331411892904e-01,-1.985370027474735233e+00
1.000000000000000000e+00,-1.003617195209537127e-01,-5.582269559510349977e-01
2.000000000000000000e+00,-3.094955036180984109e-01,5.254460737777403301e-01
2.000000000000000000e+00,8.644330198533833887e-01,8.430669408229320982e-01
2.000000000000000000e+00,3.984303320389013386e-02,1.939705349335520412e-01
3.000000000000000000e+00,8.159137714420399146e-01,5.205440744220999338e-01
1.000000000000000000e+00,9.073061354627194319e-01,-1.515205008160900091e+00
3.000000000000000000e+00,1.017797635447222016e+00,1.759390537376815278e+00
0.000000000000000000e+00,2.242141557433725008e-01,-2.041021776545740352e+00
3.000000000000000000e+00,-2.505635336304813943e-01,1.463032874671901018e+00
3.000000000000000000e+00,1.751207377863370551e+00,1.126506290456954051e+00
1.000000000000000000e+00,3.207865793145986966e-01,-2.416812828769406840e-01
1.000000000000000000e+00,5.520963846832606103e-01,-1.658626044503254349e+00
1.000000000000000000e+00,-8.706791446701325210e-01,-1.003669010820813501e+00
3.000000000000000000e+00,2.898968579802069234e-01,1.377507009530281490e+00
3.000000000000000000e+00,7.854838974258394613e-01,1.137936366353068385e+00
3.000000000000000000e+00,5.460752297008393263e-01,1.095616884122948553e+00
1.000000000000000000e+00,-1.277204792863227301e+00,-6.363836586617294122e-01
2.000000000000000000e+00,-9.143745726555521092e-01,5.826103123833313857e-01
2.000000000000000000e+00,-4.194985285361123584e-01,1.729810550561636129e+00
2.000000000000000000e+00,1.595513695593588077e-02,3.531623511705024310e-01
3.000000000000000000e+00,2.026366322292470823e+00,1.080625867456362021e+00
2.000000000000000000e+00,-1.978765633891195419e+00,2.321351071917490336e-02
2.000000000000000000e+00,1.180712120666704390e+00,3.023069942204810734e-01
3.000000000000000000e+00,9.935388021332693942e-01,3.203429960731947745e-01
0.000000000000000000e+00,-2.430346560239963483e-01,-1.887533009196614264e+00
0.000000000000000000e+00,3.707697958491470436e-01,-2.393980176491813605e+00
2.000000000000000000e+00,-2.068385650317322355e+00,1.067682620121225945e+00
2.000000000000000000e+00,-7.614217616832386071e-02,6.957270345339295892e-01
2.000000000000000000e+00,3.794178555203161496e-01,3.238649728598326782e-01
2.000000000000000000e+00,1.977000159790473222e-01,6.980992276429217602e-01
3.000000000000000000e+00,-2.183237410599072892e-01,1.472040076342644221e+00
3.000000000000000000e+00,1.546334749450815060e+00,8.327984611922180092e-01
2.000000000000000000e+00,6.432752645477166631e-01,-4.679271982418362064e-01
2.000000000000000000e+00,-4.396820155664904473e-02,2.543618353960943601e-01
2.000000000000000000e+00,-8.041635312778391276e-01,-1.732770135619295659e-01
3.000000000000000000e+00,3.936335741959899326e-01,1.534077497869030804e+00
1.000000000000000000e+00,1.992429950306602027e-01,-2.108227901544788452e+00
1.000000000000000000e+00,-1.376686251177905662e+00,-1.568629331850554531e-01
0.000000000000000000e+00,-6.985703650483816585e-01,-1.273788144067973249e+00
1.000000000000000000e+00,1.606763708875706964e+00,-1.036322410898006474e+00
1.000000000000000000e+00,-5.874632893421699587e-01,-9.190705488538980505e-01
1.000000000000000000e+00,-6.033882733078723692e-01,-5.872407999724338357e-01
2.000000000000000000e+00,3.612829301319566144e-01,-4.382194278947699750e-01
3.000000000000000000e+00,-1.300149150681266130e+00,1.107211038826466654e+00
1.000000000000000000e+00,-1.803812331759784282e-01,-1.360068437981124756e+00
2.000000000000000000e+00,8.319136833464556569e-01,2.829266628916962123e-01
3.000000000000000000e+00,2.787919313935381949e-01,1.085191005103192330e+00
3.000000000000000000e+00,-6.696716991167509514e-01,1.166715013470465356e+00
2.000000000000000000e+00,9.340174875653750597e-01,-6.630493748677496191e-01
3.000000000000000000e+00,-6.880144854578891245e-01,1.611143953502466974e+00
2.000000000000000000e+00,7.664620929488651369e-01,-6.070007737544352855e-02
2.000000000000000000e+00,5.272772945576094106e-01,-8.111516716764384238e-01
3.000000000000000000e+00,-9.708790887975355943e-01,3.017823613814040740e-01
3.000000000000000000e+00,2.211182341281747385e-02,1.741044131732302214e+00
3.000000000000000000e+00,1.447787994175912640e+00,1.636500773580098711e+00
2.000000000000000000e+00,-7.079121286822220860e-01,-4.831913250600092802e-01
2.000000000000000000e+00,-2.590528487255794876e-01,-3.250659041172961339e-01
1.000000000000000000e+00,2.157958246566194838e+00,-1.173971146726579429e+00
2.000000000000000000e+00,2.716053751036709429e-01,-6.618487293822371553e-01
0.000000000000000000e+00,9.945151749706652999e-02,-1.571432577604678471e+00
2.000000000000000000e+00,1.794110341952254162e-01,-9.093018380946840673e-02
3.000000000000000000e+00,-1.422139777483252820e-01,1.013787036398631880e+00
1.000000000000000000e+00,-1.070021153727391261e-01,-1.114735902246448473e+00
1.000000000000000000e+00,-1.279261467312172162e-01,-1.131959982247073837e+00
2.000000000000000000e+00,-2.768947930670777602e-01,-6.307346228956116629e-01
1.000000000000000000e+00,-3.051712038304096319e-01,-5.279765878793923894e-01
2.000000000000000000e+00,4.277072808578703533e-01,-3.625200450292869192e-01
2.000000000000000000e+00,-1.596117196508016534e+00,1.156498648189748374e-01
3.000000000000000000e+00,-1.900952032411373560e+00,1.855874917175129202e+00
1.000000000000000000e+00,1.129729163394642910e+00,-3.715571666976690279e-01
1.000000000000000000e+00,-8.658490135449598002e-01,-2.747826272671776149e-01
0.000000000000000000e+00,-1.399343407003410811e-01,-2.288482370810172029e+00
1.000000000000000000e+00,3.215736003602343018e-01,3.578473313124551081e-01
3.000000000000000000e+00,1.645828885971502231e+00,1.659380474676477313e+00
2.000000000000000000e+00,-7.713820484149932488e-01,-5.537942115642709162e-02
2.000000000000000000e+00,-2.958398032204827555e-01,1.372568556703900877e-01
3.000000000000000000e+00,-9.515702636075082377e-02,1.461040633603530647e+00
3.000000000000000000e+00,1.007150104669493063e+00,1.312018298572291908e+00
2.000000000000000000e+00,-1.088833778193350588e+00,2.254864549676585672e-01
3.000000000000000000e+00,9.311714386218777895e-01,1.249325787042958380e+00
1.000000000000000000e+00,-2.859979659665403684e-01,-1.503492069819765131e+00
2.000000000000000000e+00,6.090225285862922444e-01,6.196879202962959354e-01
2.000000000000000000e+00,1.671957785139839059e+00,-9.427077948303599353e-01
2.000000000000000000e+00,-1.456492863036643826e+00,-1.694711218026486235e-02
3.000000000000000000e+00,1.527444603783911781e+00,8.158134274104369421e-01
3.000000000000000000e+00,2.308704151637855639e-01,1.201469235072120778e+00
2.000000000000000000e+00,5.015611664462253927e-01,6.774139232934374144e-01
2.000000000000000000e+00,-2.599135729254986038e-01,8.687189666107967279e-01
2.000000000000000000e+00,1.287559866550016530e+00,2.304912540183440273e-01
3.000000000000000000e+00,-1.624010747856933501e-01,9.194036819161347518e-01
1.000000000000000000e+00,-2.097894702679573342e+00,-1.152897106876590527e+00
2.000000000000000000e+00,-3.413006873087231607e+00,-5.624549929445807894e-01
2.000000000000000000e+00,-1.255705560844051938e+00,3.147017886421191735e-01
1.000000000000000000e+00,1.525108083403137194e+00,-1.843347980909330275e+00
2.000000000000000000e+00,-7.641030820276764612e-02,-7.404670474106873623e-01
2.000000000000000000e+00,9.882307892559258899e-01,-6.659787779481532444e-02
3.000000000000000000e+00,2.934225108377082336e-02,1.083067653766981886e+00
1.000000000000000000e+00,-5.390768296780450441e-01,-2.124427538806707150e-01
3.000000000000000000e+00,6.638029661616534627e-02,1.464804769105299442e+00
3.000000000000000000e+00,1.261163103230749538e+00,8.194109269434629583e-01
0.000000000000000000e+00,-4.050391157515082635e-02,-2.526245214659147198e+00
2.000000000000000000e+00,4.966008720506359109e-01,-7.428727218801886023e-01
1.000000000000000000e+00,-3.577955187566210782e-01,-4.469399578661421568e-01
1.000000000000000000e+00,-1.402924855351049160e+00,-1.200850232948445923e-01
1.000000000000000000e+00,-1.102077374288864681e-01,-6.381322237555418775e-02
2.000000000000000000e+00,-7.993942962430484744e-01,4.071175491998046958e-01
2.000000000000000000e+00,1.970543449063782981e+00,-3.909497483244656624e-01
2.000000000000000000e+00,1.767520413371097998e+00,4.606834016684718813e-01
2.000000000000000000e+00,3.729834694556758423e-01,-3.557671018092321558e-01
1.000000000000000000e+00,-9.582502194648704341e-01,-1.035117495742302829e+00
1.000000000000000000e+00,-1.252331771707761332e+00,-4.955040224422547768e-01
2.000000000000000000e+00,8.208960613392253247e-01,-4.563832626052599824e-03
2.000000000000000000e+00,-8.355307258882441745e-01,-6.781146914926157176e-01
2.000000000000000000e+00,-7.161460021937956499e-01,1.535887283075083598e-01
1.000000000000000000e+00,-6.534548480636852563e-01,-5.271778396504683828e-01
1.000000000000000000e+00,4.585304349997098572e-01,-7.043859402003900261e-01
1.000000000000000000e+00,1.316013927363736791e+00,-1.287606635212950712e+00
2.000000000000000000e+00,1.120175288261318763e-01,1.225823567067834796e+00
0.000000000000000000e+00,-2.506418904141050064e+00,-1.415055286590438444e+00
2.000000000000000000e+00,-5.910351201975760915e-01,6.157485630233032747e-01
3.000000000000000000e+00,2.380562453227949682e+00,1.145292869710568873e+00
1.000000000000000000e+00,1.701651890860422789e-01,-1.371951284313636388e-01
2.000000000000000000e+00,-8.222055337875836534e-01,9.553644507377192507e-01
2.000000000000000000e+00,-6.092419784616451839e-01,2.151145258190616805e-01
2.000000000000000000e+00,7.869633402281319690e-01,3.578813324490475734e-01
3.000000000000000000e+00,2.850871558559761598e-01,1.342454615894144387e+00
1.000000000000000000e+00,7.993436920077194585e-02,-1.099074537066262680e+00
1.000000000000000000e+00,-1.253229069860130718e+00,-8.231898817393934475e-01
2.000000000000000000e+00,1.181400140169780677e+00,2.694298720995521035e-01
1.000000000000000000e+00,-1.212819977287838080e+00,-2.706679638593675330e-01
3.000000000000000000e+00,3.924165868486780284e-01,1.781873457814196593e+00
2.000000000000000000e+00,-9.334679886716931163e-01,-2.101879065493706539e-02
1.000000000000000000e+00,-4.349168900756285594e-01,-1.135186813176474185e+00
1.000000000000000000e+00,-1.913435457847386445e+00,-6.693810330603311431e-01
2.000000000000000000e+00,1.208635244859438129e-01,-2.919605208518366579e-01
3.000000000000000000e+00,1.316066911758275448e-01,8.354131451485954374e-01
1.000000000000000000e+00,-1.321090485043774576e+00,-1.625943468464481789e+00
1.000000000000000000e+00,-1.162624372256191752e+00,-1.385629014301484663e+00
1.000000000000000000e+00,-6.544309024317609413e-01,-1.400056428185113999e+00
2.000000000000000000e+00,-6.002696406086087677e-01,5.205435271857992152e-01
2.000000000000000000e+00,5.926774231660957293e-01,-5.010704266439703902e-01
2.000000000000000000e+00,1.000979269605896116e+00,1.667727352363234869e-02
1.000000000000000000e+00,-4.295608640874396533e-01,-8.639844075964147052e-01
1.000000000000000000e+00,2.377915626788855263e+00,-5.687599851360217729e-01
1.000000000000000000e+00,1.504993746687518508e+00,-1.690729415347774323e+00
3.000000000000000000e+00,9.539766233128792461e-01,1.958918060417455864e+00
2.000000000000000000e+00,1.679772052613685285e-01,-3.797852269549971127e-01
2.000000000000000000e+00,-1.140983618149923107e+00,2.246824018381997634e-01
2.000000000000000000e+00,-1.684663096212583477e+00,-5.300109621143379857e-02
2.000000000000000000e+00,2.378337475725127437e-01,-1.425680560641529593e-01
2.000000000000000000e+00,-3.529371023933087215e-01,-3.028285358500986679e-01
2.000000000000000000e+00,-2.998665005899217584e-01,-5.875077377340619939e-02
0.000000000000000000e+00,-1.212647960121541857e+00,-1.531332038979714039e+00
3.000000000000000000e+00,-2.773279653802088740e-01,1.617712584922635699e+00
1.000000000000000000e+00,-6.715596818690220404e-01,-9.661391598951565851e-02
3.000000000000000000e+00,1.107122593197186755e-01,1.203114556324083706e+00
1.000000000000000000e+00,6.946158344974009413e-01,-1.199945357189741824e+00
3.000000000000000000e+00,8.807272674783138688e-01,1.865796343444030780e+00
2.000000000000000000e+00,-2.924734762601726157e-01,2.355573419918016442e-01
2.000000000000000000e+00,1.661583662975990583e+00,-7.250820387507860287e-01
2.000000000000000000e+00,-1.417898887179017686e-01,7.764846856632517946e-01
1.000000000000000000e+00,2.332012398942574505e-01,-1.258424947428798513e+00
3.000000000000000000e+00,-9.882446157086242078e-01,3.499321913556883157e-01
2.000000000000000000e+00,-5.682038154519974960e-01,7.993362941819085465e-01
2.000000000000000000e+00,-5.360708393971524988e-01,6.673893350284121340e-01
1.000000000000000000e+00,5.823995757533159123e-01,-1.463039013437228864e+00
1.000000000000000000e+00,-4.389590194549881641e-01,-5.427603280279308384e-01
4.000000000000000000e+00,6.343180562755075247e-01,1.998604717781742091e+00
2.000000000000000000e+00,-6.430028908738691928e-01,1.844466396752761028e+00
2.000000000000000000e+00,1.188942041859764709e+00,1.084125294932366812e-01
2.000000000000000000e+00,2.288301330471587125e-01,-9.484533836573796894e-02
2.000000000000000000e+00,8.010913707686553309e-01,-3.571760914130419629e-01
4.000000000000000000e+00,2.035586353759712086e+00,1.680830578200430470e+00
2.000000000000000000e+00,1.499757194370938240e+00,-1.115809950570681719e-01
1.000000000000000000e+00,-8.562017466224781659e-01,-4.560597839395227893e-01
2.000000000000000000e+00,9.630365161422961562e-02,3.306649744187167145e-02
2.000000000000000000e+00,5.406675699162029058e-01,3.782039231873746687e-01
1.000000000000000000e+00,-9.109564924009461162e-01,-1.081532194962472992e+00
2.000000000000000000e+00,-1.017599480623077257e+00,-1.318809092702931951e-01
2.000000000000000000e+00,-5.285554263795717578e-01,1.152687696383433019e-01
1.000000000000000000e+00,-1.016654462791529295e-01,7.524918438853168967e-02
2.000000000000000000e+00,-3.507758820958095103e-01,6.719970058290529735e-01
0.000000000000000000e+00,-1.557387520250178348e+00,-1.854354273379983375e+00
1.000000000000000000e+00,1.153694910996852396e+00,-6.938953668212025638e-01
1.000000000000000000e+00,1.183856473291487577e+00,-2.775504529234100737e-01
1.000000000000000000e+00,-1.363429932510541454e-01,-6.489770606256113350e-01
2.000000000000000000e+00,1.679469950682229151e-01,6.519878132760278389e-01
2.000000000000000000e+00,-1.065952676565599805e-01,2.264603224900551548e-01
2.000000000000000000e+00,-1.061189391384647074e-01,-9.335374460213533565e-01
1.000000000000000000e+00,1.633293385170910383e+00,-3.534010020144178754e-01
3.000000000000000000e+00,-1.575307146293131177e-02,6.020338450299141941e-01
3.000000000000000000e+00,-1.535822554084280700e+00,2.102302473459502608e+00
3.000000000000000000e+00,8.451749855307533199e-01,4.955878479853575991e-01
1.000000000000000000e+00,7.694318214130109190e-01,6.934603578717501993e-02
1.000000000000000000e+00,-7.686426057163924241e-01,-9.439768341144502140e-01
2.000000000000000000e+00,-4.223349889622401432e-01,9.989351149124721385e-02
2.000000000000000000e+00,-1.230684615529199499e+00,1.022945531409904518e+00
3.000000000000000000e+00,-2.214534087860576053e-02,1.624825840588324022e+00
1.000000000000000000e+00,3.938664894398695160e-01,-5.375795772827499652e-01
1.000000000000000000e+00,-8.430179796247365687e-01,-3.343699256947934573e-01
2.000000000000000000e+00,-9.927308377945673890e-01,-6.542222859639121868e-01
1.000000000000000000e+00,1.730906162400957793e-01,-1.748803005322141502e-01
0.000000000000000000e+00,-6.670894027922655845e-01,-1.387372670053820700e+00
2.000000000000000000e+00,7.406389631675489582e-01,-4.168782635705908790e-01
2.000000000000000000e+00,3.407553214794202812e-01,9.643786170069407193e-01
2.000000000000000000e+00,5.555495729805559613e-01,1.112173542919567160e+00
1.000000000000000000e+00,-2.172806274044204386e-02,-9.921588678748516354e-01
2.000000000000000000e+00,1.424873364770791850e+00,3.750851982270548418e-02
3.000000000000000000e+00,2.178928415442216160e+00,3.158562689536581480e-01
2.000000000000000000e+00,9.691768933820426035e-01,-2.507588363111429297e-02
2.000000000000000000e+00,4.034568921215302417e-01,-4.546883443851629236e-01
2.000000000000000000e+00,9.486881119749145386e-01,-3.649778072308280663e-01
2.000000000000000000e+00,7.435274295163661895e-01,-5.623847871654649166e-01
1.000000000000000000e+00,-2.272191445632865570e+00,-5.868678740532647931e-01
2.000000000000000000e+00,-7.912292917090937294e-01,1.398793712625731045e+00
2.000000000000000000e+00,8.059651804605477698e-01,-1.250916851108967887e+00
2.000000000000000000e+00,-7.532353790030041907e-01,6.508643524111874523e-01
1.000000000000000000e+00,7.584280116142911865e-01,-2.089896936553021778e+00
2.000000000000000000e+00,9.120738139716809689e-01,-4.127843913128032005e-01
2.000000000000000000e+00,3.086462069190387125e-01,-2.661581977096132978e-01
1.000000000000000000e+00,1.835263767421175363e+00,-7.039722971678358254e-01
1.000000000000000000e+00,-3.976103815672610287e-01,-3.541125720833858126e-01
2.000000000000000000e+00,-2.366065644572118987e-01,-7.298523337742980344e-01
2.000000000000000000e+00,-4.525384747583264811e-01,-5.455089595746296371e-01
2.000000000000000000e+00,1.615876432924509221e+00,-2.687738169338125815e-01
2.000000000000000000e+00,-7.134731581378683796e-01,3.103652827544667314e-01
2.000000000000000000e+00,1.347119122532431934e+00,-1.493193998851256588e-01
0.000000000000000000e+00,-3.657962280985425640e-01,-1.986694322163010673e+00
2.000000000000000000e+00,5.177595471678012595e-01,2.321342400512210191e-01
3.000000000000000000e+00,-7.967980707298646381e-01,4.109674389594968336e-01
1.000000000000000000e+00,-3.016209665707267895e-01,-1.177403389636170861e+00
2.000000000000000000e+00,4.951685612729251340e-01,3.689748224490408957e-01
1.000000000000000000e+00,1.173553254183757298e-02,-1.354500658362788545e+00
2.000000000000000000e+00,-1.588182658145853854e-01,-3.900492540324551061e-01
2.000000000000000000e+00,-1.419725971425990663e+00,5.158269055388750024e-01
1.000000000000000000e+00,3.610891566611420522e-01,-1.568673684615434549e+00
1.000000000000000000e+00,7.148815700712578547e-01,-1.267602898295240088e+00
1.000000000000000000e+00,-9.566232805256700278e-01,-1.004791954481703886e+00
2.000000000000000000e+00,-7.538989055502802739e-01,-6.634948140317348253e-02
2.000000000000000000e+00,8.881423817506310936e-01,2.261312461000307417e-01
3.000000000000000000e+00,1.417085869340064086e+00,1.024291289451465969e+00
2.000000000000000000e+00,1.773779550230155211e+00,-7.579399914933091509e-01
3.000000000000000000e+00,1.216659527912184346e+00,6.428742443496444636e-01
1.000000000000000000e+00,8.271791280002461777e-01,-1.080956861944019964e+00
1.000000000000000000e+00,-8.509996841069335238e-02,-1.425290759133548857e+00
2.000000000000000000e+00,-4.290347345733071527e-01,8.181533415668024167e-01
2.000000000000000000e+00,-5.329598100034925734e-01,9.092385087074813521e-01
1.000000000000000000e+00,3.445548644351378864e-02,-1.159381329083029710e+00
1.000000000000000000e+00,8.386325187369152445e-01,-1.020976589856867234e+00
3.000000000000000000e+00,-8.498951232156948254e-01,1.672385947332875489e+00
2.000000000000000000e+00,1.082688973352284645e+00,-6.979924966961022215e-02
1.000000000000000000e+00,4.963859298106929052e-02,-1.288121853507007808e+00
1.000000000000000000e+00,5.087150475567850938e-01,-1.667067413007684351e+00
2.000000000000000000e+00,6.228455105591503838e-01,1.141671023491722003e+00
1.000000000000000000e+00,-9.284573438658113576e-01,-1.110653540366961733e+00
0.000000000000000000e+00,-2.755588804797166613e-01,-1.011327575905337062e+00
2.000000000000000000e+00,-9.373364853507126782e-01,4.769602303119767628e-01
3.000000000000000000e+00,6.476068953949820628e-01,4.531346947368991573e-01
1.000000000000000000e+00,-2.622591372214849170e-01,-1.408498069403310904e+00
2.000000000000000000e+00,-1.608945201570744388e+00,6.360659414057403538e-01
2.000000000000000000e+00,7.514177417411571636e-01,-2.381133132696986454e-01
0.000000000000000000e+00,-3.759533186691041418e-01,-2.141155672612294225e+00
3.000000000000000000e+00,-1.266669558735588896e-01,3.056771397702182647e-01
2.000000000000000000e+00,-1.295935306301973178e+00,8.593123377183939371e-02
2.000000000000000000e+00,-2.430538221927134312e+00,1.627957202947475368e-01
1.000000000000000000e+00,-6.705864155611582778e-01,-5.911155401126397813e-01
3.000000000000000000e+00,-1.025913450691961826e+00,1.195659233550693479e+00
3.000000000000000000e+00,1.687269191806177737e+00,9.222573873655616206e-01
2.000000000000000000e+00,-4.013221808251725697e-01,7.961214586554623551e-01
4.000000000000000000e+00,2.014890441629291651e+00,1.153609902898802497e+00
2.000000000000000000e+00,5.728462202781339219e-01,7.037575624933004592e-01
2.000000000000000000e+00,3.198397954959066314e-01,2.703464798017877202e-01
1.000000000000000000e+00,-1.176765671219007992e+00,-3.577664708648051195e-01
1.000000000000000000e+00,-2.989168325315925689e-01,-1.641783146986764752e+00
2.000000000000000000e+00,1.248818224926276921e+00,6.057256461576920881e-01
2.000000000000000000e+00,-7.727962639478956897e-01,-1.589352950604091819e-01
2.000000000000000000e+00,-7.915349195625074330e-01,5.286492467870587131e-01
1.000000000000000000e+00,3.608108322709536187e-01,-9.583837439319645712e-01
2.000000000000000000e+00,-8.316049583224424113e-01,2.503998232599296547e-01
3.000000000000000000e+00,-1.874368128675097500e+00,6.215611166934882359e-01
2.000000000000000000e+00,1.013968412428655486e-01,1.025318506815885503e-02
2.000000000000000000e+00,-5.935553097224555152e-01,3.991857448533934760e-01
2.000000000000000000e+00,-1.347490051583345005e+00,2.929305763553789466e-01
3.000000000000000000e+00,1.949300351224117156e+00,4.909948476847227905e-01
0.000000000000000000e+00,-2.289269813473238546e+00,-2.367515862103042767e+00
1.000000000000000000e+00,-1.008630462213430556e+00,-1.482632496140707357e+00
1.000000000000000000e+00,7.012008623720950018e-02,-8.765882734414393029e-01
0.000000000000000000e+00,2.266253665172214826e-01,-1.361148004183376781e+00
2.000000000000000000e+00,2.082843747743224672e+00,7.853877193517400102e-01
2.000000000000000000e+00,-8.748658150895666230e-01,-3.789386079436755650e-01
1.000000000000000000e+00,-1.358731215157168659e+00,-8.900869367142008048e-01
2.000000000000000000e+00,-2.733104058456488072e+00,2.771526052069189783e-01
2.000000000000000000e+00,5.477478701811656636e-01,-5.186140587577008354e-01
2.000000000000000000e+00,1.357021480669295288e+00,3.046258432455891674e-01
2.000000000000000000e+00,1.021095317365644239e-01,9.807725003312069978e-01
1.000000000000000000e+00,-4.973678502512783872e-01,-2.067941062334049951e-01
2.000000000000000000e+00,-1.208007309354074566e-03,2.761666204888550968e-01
3.000000000000000000e+00,1.952908145222698177e-01,8.580612828361288136e-01
3.000000000000000000e+00,1.482617844535183860e+00,6.411551003840291196e-01
2.000000000000000000e+00,4.362742618119262034e-02,-2.803665918606655372e-01
1.000000000000000000e+00,6.168391789864128283e-01,-5.472718455778132762e-01
3.000000000000000000e+00,1.774052888417052998e+00,1.915841064441448749e+00
3.000000000000000000e+00,-4.598697199023906168e-01,6.478956743854995537e-01
4.000000000000000000e+00,-1.167460095418509647e-01,2.562251311617356198e+00
2.000000000000000000e+00,4.250920226912486832e-01,1.175859362654499141e-01
1.000000000000000000e+00,1.889520212086937684e-02,-5.569086217709583453e-01
1.000000000000000000e+00,-1.317937663195246356e-01,-3.395757285548740567e-01
1.000000000000000000e+00,-3.730983250293450348e-01,-1.391750035125095097e+00
2.000000000000000000e+00,1.746953953256887404e+00,-8.638432765735133412e-01
1.000000000000000000e+00,-1.742176591434041910e+00,2.392680732592400439e-01
2.000000000000000000e+00,-4.110115592812302876e-01,1.011755095996338255e-01
1.000000000000000000e+00,-6.189140312201741878e-01,-1.824726515540220140e+00
1.000000000000000000e+00,-2.058575957400512746e-01,-4.640764160727881005e-01
2.000000000000000000e+00,-8.638845657072370399e-01,-6.384821913234786095e-01
3.000000000000000000e+00,-6.032557387325527820e-01,1.685631190451016170e+00
3.000000000000000000e+00,-4.526271930189698645e-01,5.891803019744297210e-01
2.000000000000000000e+00,1.155691726869149560e+00,3.836498543497230407e-01
0.000000000000000000e+00,-1.146174261633029046e+00,-2.280121590216527938e+00
3.000000000000000000e+00,1.673839202388395009e+00,8.770238398362181220e-01
2.000000000000000000e+00,-2.668063371215126933e-01,3.460230414424706469e-01
2.000000000000000000e+00,-5.585202810438368859e-01,9.736535673097908017e-01
2.000000000000000000e+00,6.046888532410630290e-01,1.386435795928696590e-01
1.000000000000000000e+00,5.538977444937202010e-01,-4.718224917270640306e-01
2.000000000000000000e+00,1.259755665978924688e-01,5.321555594482264562e-01
2.000000000000000000e+00,4.081629205575127428e-01,4.407205510553663386e-01
1.000000000000000000e+00,3.504423057684034060e-01,-2.183439947672127235e-01
3.000000000000000000e+00,1.510909519911140864e+00,1.132535917719002860e+00
3.000000000000000000e+00,-6.762941585348594131e-01,1.522761628393291433e+00
1.000000000000000000e+00,6.281932138079755479e-01,-7.035581523477805188e-01
3.000000000000000000e+00,-8.261579372712268832e-01,1.569017050966412086e+00
1.000000000000000000e+00,2.117920180346726799e-01,-1.238350268982816305e+00
1.000000000000000000e+00,-2.031636149627872090e+00,-1.071624870670376595e+00
1.000000000000000000e+00,-9.687494648718170120e-01,-5.251640538738506780e-01
3.000000000000000000e+00,1.675234213406174844e+00,3.602820496899267200e-01
2.000000000000000000e+00,-1.827734179945139648e+00,6.697759970046335276e-01
2.000000000000000000e+00,4.828933948046311708e-01,6.587795721224674050e-01
3.000000000000000000e+00,4.939060973798596876e-01,6.827099735735339125e-01
2.000000000000000000e+00,5.401411913175020452e-01,-1.505800715901106090e-01
1.000000000000000000e+00,-6.492135236671510157e-01,-3.277200719898030190e-01
3.000000000000000000e+00,1.107363895684904342e+00,1.521474817638496457e+00
3.000000000000000000e+00,-6.719107621028719279e-01,2.341921538151799265e+00
1.000000000000000000e+00,2.533513533977255899e-02,-1.271496054981438695e+00
3.000000000000000000e+00,2.251387433436449412e-02,9.297974751788170567e-01
3.000000000000000000e+00,1.022816031770368728e+00,8.723166426657936734e-01
1.000000000000000000e+00,6.586143809457826181e-01,-1.111729259677428194e+00
2.000000000000000000e+00,-1.099571070456704325e+00,-9.350351632636132171e-02
1.000000000000000000e+00,6.831176967274846801e-01,-1.123164859735827692e+00
1.000000000000000000e+00,3.619042143795751787e-02,-3.292313932378927999e-01
2.000000000000000000e+00,6.776242481560244002e-01,1.232978223386123895e-01
1.000000000000000000e+00,4.802574325097356267e-01,-8.358746625168019806e-01
2.000000000000000000e+00,2.182618985020990665e-01,-4.710016213117891593e-02
1.000000000000000000e+00,4.844396705778361012e-01,-1.052923390393241787e+00
2.000000000000000000e+00,1.099139654089599238e+00,6.190611506351969551e-01
3.000000000000000000e+00,-1.709817515320775305e+00,1.634664260328307916e+00
2.000000000000000000e+00,-3.118140152437033352e-01,5.810286207764638056e-02
2.000000000000000000e+00,2.161971475560573452e-01,6.699780441393551333e-01
2.000000000000000000e+00,-1.430537479224882835e+00,-3.693890922521808617e-01
1.000000000000000000e+00,7.405830816207870093e-01,-1.870346607573910358e+00
2.000000000000000000e+00,-1.202053246028750078e+00,1.118792375773150383e+00
2.000000000000000000e+00,9.368112875211183355e-02,-3.522184268473931290e-01
3.000000000000000000e+00,8.917025148736092977e-01,9.080553282278719385e-01
2.000000000000000000e+00,1.831705197505285321e-01,5.458044893485533011e-01
2.000000000000000000e+00,7.987386467313323246e-02,-6.528766465231642391e-01
1.000000000000000000e+00,-4.726516819280028314e-01,-9.601819300782705735e-01
1.000000000000000000e+00,-4.981011683063822360e-01,-9.042188412583515023e-01
2.000000000000000000e+00,1.071794904289863792e+00,-1.241804852476086962e+00
2.000000000000000000e+00,1.986082686937911568e+00,8.836012744203153302e-02
2.000000000000000000e+00,8.240752326197345878e-01,-2.122743927215119467e-02
1.000000000000000000e+00,-1.851040513081333883e+00,-6.096204288977271624e-01
3.000000000000000000e+00,-6.544505265342084321e-01,1.861312086907297880e+00
1.000000000000000000e+00,-1.386576914261224314e+00,-8.388490595310938991e-01
2.000000000000000000e+00,6.097917323175741089e-01,3.160968196380807838e-01
3.000000000000000000e+00,-1.433812507831880856e+00,9.434525673324015704e-01
2.000000000000000000e+00,-2.473009093727029650e-01,1.316359132621780059e+00
1.000000000000000000e+00,-1.183058277691430682e+00,-3.747104824661924294e-01
2.000000000000000000e+00,-1.240301010534764492e+00,3.082490809259760267e-01
1.000000000000000000e+00,4.324651713579856227e-01,-5.904538342740510704e-01
1.000000000000000000e+00,-2.280131234104838089e+00,-4.795931710562165162e-01
1.000000000000000000e+00,4.195677034165106734e-01,-1.524040474341481488e+00
2.000000000000000000e+00,-4.262189651707117277e-01,1.311067881546370759e-02
2.000000000000000000e+00,2.062869511177040649e-01,-3.211816011939889193e-01
1.000000000000000000e+00,2.856585475855276113e-01,-1.090048897124216598e+00
1.000000000000000000e+00,8.320358330147989978e-01,-2.158087557957351632e-01
2.000000000000000000e+00,6.523479115819132979e-01,-6.230473525121557055e-01
2.000000000000000000e+00,1.119125895644013546e+00,-6.905756288698730039e-01
3.000000000000000000e+00,1.534031186063506746e+00,7.961038172951755421e-01
1.000000000000000000e+00,-2.019378469311607027e+00,-1.435683524948201617e+00
2.000000000000000000e+00,-1.266624843288613800e+00,8.518517074955658241e-01
2.000000000000000000e+00,-1.009907240792482508e+00,-6.310318957228275849e-01
2.000000000000000000e+00,1.502673340145108449e+00,6.407548163613685510e-01
1.000000000000000000e+00,-2.241878731730484742e-01,-7.737260473184999210e-01
2.000000000000000000e+00,1.198749331500227999e+00,-7.471038771846362225e-01
3.000000000000000000e+00,-7.779074177275516755e-01,1.617030905939312868e+00
0.000000000000000000e+00,1.655471947001311284e-01,-1.323205470774464265e+00
2.000000000000000000e+00,1.875662373138164529e+00,-3.349249405493295861e-01
4.000000000000000000e+00,2.129750391526283870e+00,2.999935173803017552e+00
2.000000000000000000e+00,9.684419328630891055e-01,5.084630167472233009e-02
2.000000000000000000e+00,2.497290362155694943e-01,2.899643405647471181e-02
2.000000000000000000e+00,-7.629943395600030653e-01,9.806117956856880147e-01
1.000000000000000000e+00,-1.338710946376327815e+00,-6.240735393299400302e-01
2.000000000000000000e+00,-2.798026371768496112e-01,5.203415890967193480e-01
1.000000000000000000e+00,3.672741939555339563e-01,-8.764505784496501306e-01
2.000000000000000000e+00,-1.936637722885278245e-01,-1.756237859981010785e-01
2.000000000000000000e+00,8.677301431136524856e-01,4.916680519257914800e-02
2.000000000000000000e+00,1.465175843860495375e+00,-4.130105915282578088e-01
2.000000000000000000e+00,-2.818154138626315919e-01,1.065736800622325342e+00
1.000000000000000000e+00,-1.292714175734209991e+00,-2.117343327285491072e-01
3.000000000000000000e+00,1.842472014343177644e+00,9.068995884064636748e-01
2.000000000000000000e+00,-1.447982467860691846e+00,-3.300389017507227019e-02
1.000000000000000000e+00,-2.541826591123830248e-01,-5.543491786932353699e-02
2.000000000000000000e+00,7.188228545269985670e-01,2.611447673004219650e-01
2.000000000000000000e+00,9.226871861017802434e-01,2.907899261979313144e-01
1.000000000000000000e+00,-2.157726907024928309e-01,-1.440769738381181053e+00
2.000000000000000000e+00,-1.051674864282415023e-01,-1.771310639579427582e-01
2.000000000000000000e+00,-3.559170353433697143e-01,2.232174892629635865e-01
4.000000000000000000e+00,8.285017306900027689e-01,2.361814879661670474e+00
2.000000000000000000e+00,-2.448649309884379233e-01,3.891463768718544936e-02
3.000000000000000000e+00,6.861989739032829660e-02,6.659281010661487477e-01
3.000000000000000000e+00,-5.689642116647714021e-01,8.727719065543936283e-01
3.000000000000000000e+00,7.629850119475541925e-01,1.504367494105368852e+00
1.000000000000000000e+00,-3.997846724589150524e-02,-7.226058574792162403e-01
2.000000000000000000e+00,1.609514475637708442e+00,6.452175368814091344e-03
1.000000000000000000e+00,7.346193806974496976e-01,-6.097712531333244756e-01
1.000000000000000000e+00,-2.512214877193492679e+00,-5.566005970287304372e-01
2.000000000000000000e+00,-2.241473740209841692e-01,-1.059224069411508901e-01
3.000000000000000000e+00,1.844423574978891200e-01,1.128274116718155806e+00
1.000000000000000000e+00,-9.543217917994781807e-01,-5.301888486400548883e-01
3.000000000000000000e+00,-6.179238168425604805e-02,1.168450584388969427e+00
3.000000000000000000e+00,-4.464332821394567108e-01,1.724113894238170408e+00
1.000000000000000000e+00,-1.390587903735626796e+00,-1.566684746993501909e+00
3.000000000000000000e+00,3.294048707220129657e-01,1.203603160634480140e+00
2.000000000000000000e+00,-4.660193713824328787e-01,-7.684347190914713188e-01
