\relax 
\bibstyle{econometrica}
\citation{PudneyShields:2000}
\citation{LempKockelmanUnnikrishnan:2011}
\citation{HodgeShankar:2014}
\citation{BellemareMelenbergVanSoest:2002}
\citation{Stewart:2004}
\citation{ButlerMcDonaldNelsonWhite:1990}
\@writefile{toc}{\contentsline {section}{\numberline {1}Introduction}{1}}
\newlabel{SecIntro}{{1}{1}}
\@writefile{toc}{\contentsline {section}{\numberline {2}The Model}{2}}
\newlabel{SecModel}{{2}{2}}
\newlabel{contvar}{{2.1}{2}}
\citation{Ruud:1983}
\citation{KermanMcDonald:2013}
\citation{KermanMcDonald:2013}
\newlabel{prob}{{2.3}{3}}
\newlabel{loglike}{{2.5}{3}}
\@writefile{lof}{\contentsline {figure}{\numberline {2.1}{\ignorespaces The SGT distribution tree \citep  {KermanMcDonald:2013}\relax }}{4}}
\newlabel{SGT cumulative}{{2.6}{4}}
\newlabel{SGED}{{2.8}{5}}
\newlabel{z}{{2.9}{5}}
\@writefile{toc}{\contentsline {section}{\numberline {3}Empirical Application}{5}}
\newlabel{Results}{{3}{5}}
\@writefile{lot}{\contentsline {table}{\numberline {1}{\ignorespaces Satisfaction is the dependent variable. Data is from the World Values Survey, waves 1-5.\relax }}{5}}
\providecommand*\caption@xref[2]{\@setref\relax\@undefined{#1}}
\newlabel{table:stats}{{1}{5}}
\@writefile{lot}{\contentsline {table}{\numberline {2}{\ignorespaces Results using increasingly more flexible error distributional assumptions. ***, **, * means significant at a .01, .05 and .1 level.\relax }}{7}}
\newlabel{table:results}{{2}{7}}
\@writefile{lot}{\contentsline {table}{\numberline {3}{\ignorespaces LR tests between various distributions\relax }}{8}}
\newlabel{table:lrtest}{{3}{8}}
\newlabel{margins}{{3.1}{8}}
\@writefile{lot}{\contentsline {table}{\numberline {4}{\ignorespaces Ratios of the marginal effects between the Normal and SGED, the Laplace and SGED and the SLaplace and SGED\relax }}{9}}
\newlabel{table:margins_ratios}{{4}{9}}
\bibdata{references}
\bibcite{BellemareMelenbergVanSoest:2002}{{1}{2002}{{Bellemare, Melenberg, and van Soest}}{{Bellemare, Melenberg, and van Soest}}}
\bibcite{ButlerMcDonaldNelsonWhite:1990}{{2}{1990}{{Butler and White}}{{Butler and White}}}
\bibcite{HodgeShankar:2014}{{3}{2014}{{Hodge and Shankar}}{{Hodge and Shankar}}}
\bibcite{KermanMcDonald:2013}{{4}{2013}{{Kerman and McDonald}}{{Kerman and McDonald}}}
\bibcite{LempKockelmanUnnikrishnan:2011}{{5}{2011}{{Lemp, Kockelman, and Unnikrishnan}}{{Lemp, Kockelman, and Unnikrishnan}}}
\bibcite{PudneyShields:2000}{{6}{2000}{{Pudney and Shields}}{{Pudney and Shields}}}
\bibcite{Ruud:1983}{{7}{1983}{{Ruud}}{{Ruud}}}
\@writefile{toc}{\contentsline {section}{\numberline {4}Conclusion}{10}}
\newlabel{SecConcl}{{4}{10}}
\bibcite{Stewart:2004}{{8}{2004}{{Stewart}}{{Stewart}}}
