\relax 
\providecommand\hyper@newdestlabel[2]{}
\providecommand\HyperFirstAtBeginDocument{\AtBeginDocument}
\HyperFirstAtBeginDocument{\ifx\hyper@anchor\@undefined
\global\let\oldcontentsline\contentsline
\gdef\contentsline#1#2#3#4{\oldcontentsline{#1}{#2}{#3}}
\global\let\oldnewlabel\newlabel
\gdef\newlabel#1#2{\newlabelxx{#1}#2}
\gdef\newlabelxx#1#2#3#4#5#6{\oldnewlabel{#1}{{#2}{#3}}}
\AtEndDocument{\ifx\hyper@anchor\@undefined
\let\contentsline\oldcontentsline
\let\newlabel\oldnewlabel
\fi}
\fi}
\global\let\hyper@last\relax 
\gdef\HyperFirstAtBeginDocument#1{#1}
\providecommand\HyField@AuxAddToFields[1]{}
\providecommand\HyField@AuxAddToCoFields[2]{}
\bibstyle{econometrica}
\citation{PudneyShields:2000}
\citation{LempKockelmanUnnikrishnan:2011}
\citation{HodgeShankar:2014}
\citation{BellemareMelenbergVanSoest:2002}
\citation{Stewart:2004}
\citation{HansenMcDonaldTheodossiou:2007}
\@writefile{toc}{\contentsline {section}{\numberline {1}Introduction}{1}{section.1}}
\newlabel{SecIntro}{{1}{1}{Introduction}{section.1}{}}
\@writefile{toc}{\contentsline {section}{\numberline {2}The Model}{2}{section.2}}
\newlabel{SecModel}{{2}{2}{The Model}{section.2}{}}
\newlabel{contvar}{{2.1}{2}{The Model}{equation.2.1}{}}
\citation{Ruud:1983}
\citation{KermanMcDonald:2013}
\newlabel{SGT cumulative}{{2.6}{4}{The Model}{equation.2.6}{}}
\newlabel{SGED}{{2.8}{5}{The Model}{equation.2.8}{}}
\newlabel{z}{{2.9}{5}{The Model}{equation.2.9}{}}
\@writefile{toc}{\contentsline {section}{\numberline {3}Empirical Application}{5}{section.3}}
\newlabel{Results}{{3}{5}{Empirical Application}{section.3}{}}
\@writefile{lot}{\contentsline {table}{\numberline {1}{\ignorespaces Satisfaction is the dependent variable. Data is from the World Values Survey, waves 1-5.\relax }}{5}{table.1}}
\providecommand*\caption@xref[2]{\@setref\relax\@undefined{#1}}
\newlabel{table:stats}{{1}{5}{Satisfaction is the dependent variable. Data is from the World Values Survey, waves 1-5.\relax }{table.1}{}}
\@writefile{lot}{\contentsline {table}{\numberline {2}{\ignorespaces Results using increasingly more flexible error distributio assumptions\relax }}{7}{table.2}}
\newlabel{table:results}{{2}{7}{Results using increasingly more flexible error distributio assumptions\relax }{table.2}{}}
\bibdata{references}
\bibcite{KermanMcDonald:2013}{{1}{2013}{{Kerman and McDonald }}{{Kerman and McDonald}}}
\bibcite{BellemareMelenbergVanSoest:2002}{{2}{2002}{{Bellemare, Melenberg, and van Soest}}{{Bellemare, Melenberg, and van Soest}}}
\bibcite{HansenMcDonaldTheodossiou:2007}{{3}{2007}{{Hansen, McDonald, and Theodossiou}}{{Hansen, McDonald, and Theodossiou}}}
\bibcite{HodgeShankar:2014}{{4}{2014}{{Hodge and Shankar}}{{Hodge and Shankar}}}
\bibcite{LempKockelmanUnnikrishnan:2011}{{5}{2011}{{Lemp, Kockelman, and Unnikrishnan}}{{Lemp, Kockelman, and Unnikrishnan}}}
\@writefile{lot}{\contentsline {table}{\numberline {3}{\ignorespaces LR tests between various distributions\relax }}{8}{table.3}}
\newlabel{table:lrtest}{{3}{8}{LR tests between various distributions\relax }{table.3}{}}
\@writefile{toc}{\contentsline {section}{\numberline {4}Conclusion}{8}{section.4}}
\newlabel{SecConcl}{{4}{8}{Conclusion}{section.4}{}}
\bibcite{PudneyShields:2000}{{6}{2000}{{Pudney and Shields}}{{Pudney and Shields}}}
\bibcite{Ruud:1983}{{7}{1983}{{Ruud}}{{Ruud}}}
\bibcite{Stewart:2004}{{8}{2004}{{Stewart}}{{Stewart}}}
