\relax 
\bibstyle{plainnat}
\citation{PudneyShields:2000}
\citation{LempKockelmanUnnikrishnan:2011}
\citation{HodgeShankar:2014}
\citation{BellemareMelenbergVanSoest:2002}
\citation{Stewart:2004}
\citation{ButlerMcDonaldNelsonWhite:1990}
\@writefile{toc}{\contentsline {section}{\numberline {1}Introduction}{1}}
\newlabel{SecIntro}{{1}{1}}
\@writefile{toc}{\contentsline {section}{\numberline {2}The Model}{2}}
\newlabel{SecModel}{{2}{2}}
\newlabel{contvar}{{2.1}{2}}
\citation{Ruud:1983}
\citation{HansenMcDonaldNewey:2010}
\citation{HansenMcDonaldNewey:2010}
\newlabel{prob}{{2.3}{3}}
\newlabel{loglike}{{2.5}{3}}
\citation{Theodossiou:2010}
\@writefile{lof}{\contentsline {figure}{\numberline {2.1}{\ignorespaces The SGT distribution tree (adapted from \citet  {HansenMcDonaldNewey:2010})\relax }}{4}}
\newlabel{SGT cumulative}{{2.6}{4}}
\citation{McDonaldNewey:1988}
\citation{Hansen:1994}
\newlabel{SGED}{{2.8}{5}}
\newlabel{z}{{2.9}{5}}
\@writefile{toc}{\contentsline {section}{\numberline {3}Empirical Application}{5}}
\newlabel{Results}{{3}{5}}
\@writefile{lot}{\contentsline {table}{\numberline {1}{\ignorespaces Satisfaction is the dependent variable. Data is from the World Values Survey, waves 1-5.\relax }}{6}}
\providecommand*\caption@xref[2]{\@setref\relax\@undefined{#1}}
\newlabel{table:stats}{{1}{6}}
\@writefile{lot}{\contentsline {table}{\numberline {2}{\ignorespaces Results using increasingly more flexible error distributional assumptions. ***, **, * means significant at a .01, .05 and .1 level.\relax }}{7}}
\newlabel{table:results}{{2}{7}}
\@writefile{lot}{\contentsline {table}{\numberline {3}{\ignorespaces LR tests between various distributions\relax }}{8}}
\newlabel{table:lrtest}{{3}{8}}
\newlabel{margins}{{3.1}{8}}
\@writefile{lot}{\contentsline {table}{\numberline {4}{\ignorespaces Ratios of the marginal effects between the Normal and SGED, the Laplace and SGED and the SLaplace and SGED\relax }}{9}}
\newlabel{table:margins_ratios}{{4}{9}}
\bibdata{references}
\bibcite{BellemareMelenbergVanSoest:2002}{{1}{2002}{{Bellemare et~al.}}{{Bellemare, Melenberg, and van Soest}}}
\bibcite{ButlerMcDonaldNelsonWhite:1990}{{2}{1990}{{Butler et~al.}}{{Butler, McDonald, Nelson, and White}}}
\bibcite{Hansen:1994}{{3}{1994}{{E.Hansen}}{{}}}
\bibcite{HansenMcDonaldNewey:2010}{{4}{2010}{{Hansen et~al.}}{{Hansen, McDonald, and Newey}}}
\bibcite{HodgeShankar:2014}{{5}{2014}{{Hodge and Shankar}}{{}}}
\bibcite{LempKockelmanUnnikrishnan:2011}{{6}{2011}{{Lemp et~al.}}{{Lemp, Kockelman, and Unnikrishnan}}}
\bibcite{McDonaldNewey:1988}{{7}{1988}{{McDonald and Newey}}{{}}}
\@writefile{toc}{\contentsline {section}{\numberline {4}Conclusion}{10}}
\newlabel{SecConcl}{{4}{10}}
\bibcite{PudneyShields:2000}{{8}{2000}{{Pudney and Shields}}{{}}}
\bibcite{Ruud:1983}{{9}{1983}{{Ruud}}{{}}}
\bibcite{Stewart:2004}{{10}{2004}{{Stewart}}{{}}}
\bibcite{Theodossiou:2010}{{11}{1998}{{Theodossiou}}{{}}}
