\relax 
\providecommand\hyper@newdestlabel[2]{}
\providecommand\HyperFirstAtBeginDocument{\AtBeginDocument}
\HyperFirstAtBeginDocument{\ifx\hyper@anchor\@undefined
\global\let\oldcontentsline\contentsline
\gdef\contentsline#1#2#3#4{\oldcontentsline{#1}{#2}{#3}}
\global\let\oldnewlabel\newlabel
\gdef\newlabel#1#2{\newlabelxx{#1}#2}
\gdef\newlabelxx#1#2#3#4#5#6{\oldnewlabel{#1}{{#2}{#3}}}
\AtEndDocument{\ifx\hyper@anchor\@undefined
\let\contentsline\oldcontentsline
\let\newlabel\oldnewlabel
\fi}
\fi}
\global\let\hyper@last\relax 
\gdef\HyperFirstAtBeginDocument#1{#1}
\providecommand\HyField@AuxAddToFields[1]{}
\providecommand\HyField@AuxAddToCoFields[2]{}
\bibstyle{econometrica}
\@writefile{toc}{\contentsline {section}{\numberline {1}Introduction}{1}{section.1}}
\newlabel{SecIntro}{{1}{1}{Introduction}{section.1}{}}
\@writefile{toc}{\contentsline {section}{\numberline {2}The Model}{2}{section.2}}
\newlabel{SecModel}{{2}{2}{The Model}{section.2}{}}
\newlabel{contvar}{{2.1}{2}{The Model}{equation.2.1}{}}
\newlabel{SGED}{{2.5}{3}{The Model}{equation.2.5}{}}
\newlabel{z}{{2.6}{4}{The Model}{equation.2.6}{}}
\newlabel{normal}{{2.7}{4}{The Model}{equation.2.7}{}}
\@writefile{toc}{\contentsline {section}{\numberline {3}Empirical Application}{4}{section.3}}
\newlabel{Results}{{3}{4}{Empirical Application}{section.3}{}}
\@writefile{toc}{\contentsline {section}{\numberline {4}Conclusion}{4}{section.4}}
\newlabel{SecConcl}{{4}{4}{Conclusion}{section.4}{}}
\@writefile{lof}{\contentsline {figure}{\numberline {3.1}{\ignorespaces Results using increasingly more flexible error distribution assumptions\relax }}{5}{figure.caption.1}}
\@writefile{lof}{\contentsline {figure}{\numberline {3.2}{\ignorespaces LR test comparing each flexible distribution to the ordered probit\relax }}{5}{figure.caption.2}}
