,religious,male,income,yearsold,yearsold2,married,unemployed,high_school
y=0,-0.013546734551,-0.00233039915019,-0.00985440154474,0.00228653506351,-2.12233667755e-05,-0.00929911098743,0.00181240828432,-0.00368280859697
y=1,-0.010198849841,-0.0017544738116,-0.00741902495023,0.00172145011635,-1.59783104962e-05,-0.00700096663582,0.00136449709506,-0.00277265430516
y=2,-0.0127140968595,-0.00218716329055,-0.00924870973596,0.00214599526998,-1.99188918815e-05,-0.00872754960661,0.00170101026111,-0.00345644812339
y=3,-0.0129204526028,-0.00222266197454,-0.00939882062415,0.00218082577772,-2.02421848205e-05,-0.00886920182195,0.00172861845386,-0.00351254789434
y=4,-0.0101536041172,-0.00174669034202,-0.00738611151794,0.00171381315163,-1.59074250302e-05,-0.00696990785884,0.00135844370084,-0.00276035382493
y=5,0.00747763342689,0.00128635211075,0.00543951032005,-0.00126213966608,1.17150414541e-05,0.00513299665674,-0.00100042742544,0.00203286574827
y=6,0.0104249065133,0.0017933615801,0.00758346703128,-0.00175960591734,1.63324684411e-05,0.00715614248853,-0.00139474106154,0.002834109961
y=7,0.0141427092148,0.00243292266572,0.0102879358128,-0.00238712882363,2.21570669844e-05,0.0097082158181,-0.00189214332407,0.00384482997617
y=8,0.0114591739609,0.00197128312805,0.00833583186836,-0.00193417852561,1.79528321754e-05,0.00786611194647,-0.00153311499093,0.00311528540098
y=9,0.0160293148555,0.00275746908429,0.0116603233405,-0.00270556644653,2.5112769949e-05,0.0110032700008,-0.00214455099321,0.00435772165839
