,0,1,2,3,4,5,6,7,8
success,True,,,,,,,,
alphas,-1.09576695124,-0.766026868183,-0.520968988615,-0.339102516315,-0.0417931505415,0.125123607504,0.329488081069,0.624805470396,0.961977579606
alphas_steds,0.0610165466288,0.0584610037948,0.0576755106331,0.0572666615814,0.0569075118103,0.0568826554371,0.0569561569932,0.0573469560206,0.0582275395885
betas,0.109644637138,0.00974798491678,0.0627317642605,-0.014106131946,0.000143960225023,0.0441382033929,-0.0290663122095,0.00895729464697,
betas_steds,0.0194396161181,0.0141528973984,0.00312709676256,0.00265633114463,2.88449842477e-05,0.0162516585392,0.0218518107926,0.0151423561054,
thetas,0.0339804647922,1.45946788549,,,,,,,
ll_restricted,-22260.6262949,,,,,,,,
ll_unrestricted,-22004.4236013,,,,,,,,
lr_test,512.405387125,,,,,,,,
