\relax 
\@writefile{toc}{\contentsline {section}{\tocsection {}{}{CDFs}}{1}}
\newlabel{tocindent-1}{0pt}
\newlabel{tocindent0}{13.9917pt}
\newlabel{tocindent1}{0pt}
\newlabel{tocindent2}{0pt}
\newlabel{tocindent3}{0pt}
\@writefile{toc}{\contentsline {section}{\tocsection {}{}{PDFS}}{2}}
